verilog/rtl/rams/ram_512x32_2r1w_2021-11-24_03-18-38/srimulation.vcd
$date
	Wed Nov 24 03:18:48 2021
$end
$version
	Icarus Verilog
$end
$timescale
	1s
$end
$scope module ram_generic_nr1w_tb $end
$var wire 64 ! RData_pck_sram [63:0] $end
$var reg 18 " RAddr_pck [17:0] $end
$var reg 64 # RData_pck_golden [63:0] $end
$var reg 9 $ WAddr_pck [8:0] $end
$var reg 32 % WData_pck [31:0] $end
$var reg 1 & WEnb $end
$var reg 1 ' clk $end
$var reg 1 ( raw_addr $end
$var reg 1 ) rdw_addr $end
$var reg 1 * rst $end
$var reg 1 + waw_addr $end
$var reg 1 , wdw_addr $end
$var reg 4 - wmask_pck [3:0] $end
$var integer 32 . _i_ [31:0] $end
$var integer 32 / cycc [31:0] $end
$var integer 32 0 i [31:0] $end
$var integer 32 1 j [31:0] $end
$var integer 32 2 p [31:0] $end
$var integer 32 3 pass [31:0] $end
$var integer 32 4 q [31:0] $end
$var integer 32 5 r [31:0] $end
$var integer 32 6 rep_fd [31:0] $end
$var integer 32 7 s [31:0] $end
$scope module ram_nr1w $end
$var wire 18 8 addr [17:0] $end
$var wire 18 9 addr1 [17:0] $end
$var wire 1 ' clk $end
$var wire 1 ' clk1 $end
$var wire 1 : csb $end
$var wire 1 ; csb1 $end
$var wire 32 < din [31:0] $end
$var wire 1 = web $end
$var wire 4 > wmask [3:0] $end
$var reg 64 ? dout [63:0] $end
$var reg 64 @ dout1 [63:0] $end
$var integer 32 A _i_ [31:0] $end
$scope begin genblk1[0] $end
$scope module ram_1rw $end
$var wire 9 B addr [8:0] $end
$var wire 9 C addr1 [8:0] $end
$var wire 1 ' clk $end
$var wire 1 ' clk1 $end
$var wire 1 : csb $end
$var wire 1 ; csb1 $end
$var wire 32 D din [31:0] $end
$var wire 1 = web $end
$var wire 4 E wmask [3:0] $end
$var wire 2 F Addr_sel_1 [1:0] $end
$var wire 2 G Addr_sel [1:0] $end
$var reg 32 H RData_out [31:0] $end
$var reg 32 I RData_out_1 [31:0] $end
$var reg 2 J Raddr_sel [1:0] $end
$var reg 2 K Raddr_sel_1 [1:0] $end
$var reg 32 L dout [31:0] $end
$var reg 32 M dout1 [31:0] $end
$var reg 1 N web_reg $end
$var integer 32 O i [31:0] $end
$var integer 32 P j [31:0] $end
$scope begin genblk1[0] $end
$scope begin genblk4 $end
$scope module ram_i $end
$var wire 8 Q addr0 [7:0] $end
$var wire 8 R addr1 [7:0] $end
$var wire 1 ' clk0 $end
$var wire 1 ' clk1 $end
$var wire 1 S csb0 $end
$var wire 1 T csb1 $end
$var wire 32 U din0 [31:0] $end
$var wire 1 V web0 $end
$var wire 4 W wmask0 [3:0] $end
$var reg 8 X addr0_reg [7:0] $end
$var reg 8 Y addr1_reg [7:0] $end
$var reg 1 Z csb0_reg $end
$var reg 1 [ csb1_reg $end
$var reg 32 \ din0_reg [31:0] $end
$var reg 32 ] dout0 [31:0] $end
$var reg 32 ^ dout1 [31:0] $end
$var reg 1 _ web0_reg $end
$var reg 4 ` wmask0_reg [3:0] $end
$var integer 32 a i [31:0] $end
$scope begin MEM_READ0 $end
$upscope $end
$scope begin MEM_READ1 $end
$upscope $end
$scope begin MEM_WRITE0 $end
$upscope $end
$upscope $end
$upscope $end
$upscope $end
$scope begin genblk1[1] $end
$scope begin genblk4 $end
$scope module ram_i $end
$var wire 8 b addr0 [7:0] $end
$var wire 8 c addr1 [7:0] $end
$var wire 1 ' clk0 $end
$var wire 1 ' clk1 $end
$var wire 1 d csb0 $end
$var wire 1 e csb1 $end
$var wire 32 f din0 [31:0] $end
$var wire 1 g web0 $end
$var wire 4 h wmask0 [3:0] $end
$var reg 8 i addr0_reg [7:0] $end
$var reg 8 j addr1_reg [7:0] $end
$var reg 1 k csb0_reg $end
$var reg 1 l csb1_reg $end
$var reg 32 m din0_reg [31:0] $end
$var reg 32 n dout0 [31:0] $end
$var reg 32 o dout1 [31:0] $end
$var reg 1 p web0_reg $end
$var reg 4 q wmask0_reg [3:0] $end
$var integer 32 r i [31:0] $end
$scope begin MEM_READ0 $end
$upscope $end
$scope begin MEM_READ1 $end
$upscope $end
$scope begin MEM_WRITE0 $end
$upscope $end
$upscope $end
$upscope $end
$upscope $end
$upscope $end
$upscope $end
$scope begin genblk1[1] $end
$scope module ram_1rw $end
$var wire 9 s addr [8:0] $end
$var wire 9 t addr1 [8:0] $end
$var wire 1 ' clk $end
$var wire 1 ' clk1 $end
$var wire 1 : csb $end
$var wire 1 ; csb1 $end
$var wire 32 u din [31:0] $end
$var wire 1 = web $end
$var wire 4 v wmask [3:0] $end
$var wire 2 w Addr_sel_1 [1:0] $end
$var wire 2 x Addr_sel [1:0] $end
$var reg 32 y RData_out [31:0] $end
$var reg 32 z RData_out_1 [31:0] $end
$var reg 2 { Raddr_sel [1:0] $end
$var reg 2 | Raddr_sel_1 [1:0] $end
$var reg 32 } dout [31:0] $end
$var reg 32 ~ dout1 [31:0] $end
$var reg 1 !" web_reg $end
$var integer 32 "" i [31:0] $end
$var integer 32 #" j [31:0] $end
$scope begin genblk1[0] $end
$scope begin genblk4 $end
$scope module ram_i $end
$var wire 8 $" addr0 [7:0] $end
$var wire 8 %" addr1 [7:0] $end
$var wire 1 ' clk0 $end
$var wire 1 ' clk1 $end
$var wire 1 &" csb0 $end
$var wire 1 '" csb1 $end
$var wire 32 (" din0 [31:0] $end
$var wire 1 )" web0 $end
$var wire 4 *" wmask0 [3:0] $end
$var reg 8 +" addr0_reg [7:0] $end
$var reg 8 ," addr1_reg [7:0] $end
$var reg 1 -" csb0_reg $end
$var reg 1 ." csb1_reg $end
$var reg 32 /" din0_reg [31:0] $end
$var reg 32 0" dout0 [31:0] $end
$var reg 32 1" dout1 [31:0] $end
$var reg 1 2" web0_reg $end
$var reg 4 3" wmask0_reg [3:0] $end
$var integer 32 4" i [31:0] $end
$scope begin MEM_READ0 $end
$upscope $end
$scope begin MEM_READ1 $end
$upscope $end
$scope begin MEM_WRITE0 $end
$upscope $end
$upscope $end
$upscope $end
$upscope $end
$scope begin genblk1[1] $end
$scope begin genblk4 $end
$scope module ram_i $end
$var wire 8 5" addr0 [7:0] $end
$var wire 8 6" addr1 [7:0] $end
$var wire 1 ' clk0 $end
$var wire 1 ' clk1 $end
$var wire 1 7" csb0 $end
$var wire 1 8" csb1 $end
$var wire 32 9" din0 [31:0] $end
$var wire 1 :" web0 $end
$var wire 4 ;" wmask0 [3:0] $end
$var reg 8 <" addr0_reg [7:0] $end
$var reg 8 =" addr1_reg [7:0] $end
$var reg 1 >" csb0_reg $end
$var reg 1 ?" csb1_reg $end
$var reg 32 @" din0_reg [31:0] $end
$var reg 32 A" dout0 [31:0] $end
$var reg 32 B" dout1 [31:0] $end
$var reg 1 C" web0_reg $end
$var reg 4 D" wmask0_reg [3:0] $end
$var integer 32 E" i [31:0] $end
$scope begin MEM_READ0 $end
$upscope $end
$scope begin MEM_READ1 $end
$upscope $end
$scope begin MEM_WRITE0 $end
$upscope $end
$upscope $end
$upscope $end
$upscope $end
$upscope $end
$upscope $end
$upscope $end
$scope task genInitFiles $end
$var reg 32 F" DEPTH [31:0] $end
$var reg 160 G" FILEN [1:160] $end
$var reg 256 H" INITVAL [255:0] $end
$var reg 1 I" RAND $end
$var reg 32 J" WIDTH [31:0] $end
$var reg 256 K" ramdata [255:0] $end
$var integer 32 L" addr [31:0] $end
$var integer 32 M" hex_fd [31:0] $end
$var integer 32 N" mif_fd [31:0] $end
$upscope $end
$upscope $end
$enddefinitions $end
#0
$dumpvars
b10000000000000000000000000000100 N"
b10000000000000000000000000000011 M"
b1000000000 L"
b10100010001010101100011001000100 K"
b100000 J"
1I"
b0 H"
b110100101101110011010010111010001011111011100100110000101101101 G"
b1000000000 F"
b100000000 E"
bx D"
xC"
bx B"
bx A"
bx @"
x?"
x>"
bx ="
bx <"
bx ;"
x:"
bx 9"
18"
x7"
b0 6"
bx 5"
b100000000 4"
bx 3"
x2"
bx 1"
bx 0"
bx /"
x."
x-"
bx ,"
bx +"
bx *"
x)"
bx ("
1'"
x&"
b0 %"
bx $"
bx #"
b10 ""
x!"
bx ~
bx }
bx |
bx {
bx z
bx y
bx x
b0 w
bx v
bx u
b0 t
bx s
b100000000 r
bx q
xp
bx o
bx n
bx m
xl
xk
bx j
bx i
bx h
xg
bx f
1e
xd
b0 c
bx b
b100000000 a
bx `
x_
bx ^
bx ]
bx \
x[
xZ
bx Y
bx X
bx W
xV
bx U
1T
xS
b0 R
bx Q
bx P
b10 O
xN
bx M
bx L
bx K
bx J
bx I
bx H
bx G
b0 F
bx E
bx D
b0 C
bx B
b11 A
bx @
bx ?
bx >
x=
bx <
1;
0:
b0 9
bx 8
bx 7
b10000000000000000000000000000011 6
b1000000000 5
bx 4
bx 3
bx 2
bx 1
bx 0
b1 /
bx .
bx -
x,
x+
1*
x)
x(
0'
x&
bx %
bx $
bx #
bx "
bx !
$end
#5
b0 K
b0 |
b0 Y
1[
b0 j
1l
b10 P
b0 ,"
1."
b0 ="
1?"
b10 #"
b10 4
1'
#10
07"
b10001101 5"
1&"
b0 $"
b1 x
1d
b0 b
0S
b11101001 Q
b0 G
b110001101 s
b11101001 B
b11 A
1g
1V
b10 O
1:"
1)"
b10 ""
b110001101011101001 8
1=
b101100010 $
b1 -
b1 >
b1 E
b1 W
b1 h
b1 v
b1 *"
b1 ;"
b110001101011101001 "
b11 .
0&
b11010101000111001011010010101010 %
b11010101000111001011010010101010 <
b11010101000111001011010010101010 D
b11010101000111001011010010101010 U
b11010101000111001011010010101010 f
b11010101000111001011010010101010 u
b11010101000111001011010010101010 ("
b11010101000111001011010010101010 9"
0(
0)
b0 1
0+
0,
b1 0
0'
#15
1!"
b1 {
1N
b0 J
b10 4
b10 #"
b11010101000111001011010010101010 @"
b10001101 <"
b1 D"
1C"
0>"
b11010101000111001011010010101010 /"
b0 +"
b1 3"
12"
1-"
b10 P
b11010101000111001011010010101010 m
b0 i
b1 q
1p
1k
b11010101000111001011010010101010 \
b11101001 X
b1 `
1_
0Z
1'
#20
b11001101 5"
b10 ""
0d
b11110000 b
1S
b0 Q
b10 O
b1 G
b111001101 s
b111110000 B
b11 A
b111001101111110000 8
b110111 $
b1111 -
b1111 >
b1111 E
b1111 W
b1111 h
b1111 v
b1111 *"
b1111 ;"
b111001101111110000 "
b11 .
0&
b1011101100000110110001110111011 %
b1011101100000110110001110111011 <
b1011101100000110110001110111011 D
b1011101100000110110001110111011 U
b1011101100000110110001110111011 f
b1011101100000110110001110111011 u
b1011101100000110110001110111011 ("
b1011101100000110110001110111011 9"
0(
0)
0+
0,
b10 0
0'
#23
b0 A"
b0 ]
#25
b0 #
b1 J
b11 .
b0 !
b0 ?
b11 A
b0 L
b0 }
b1011101100000110110001110111011 \
b0 X
b1111 `
1Z
b1011101100000110110001110111011 m
b11110000 i
b1111 q
0k
b0 H
b10 P
b1011101100000110110001110111011 /"
b1111 3"
b1011101100000110110001110111011 @"
b11001101 <"
b1111 D"
b0 y
b10 #"
b10 4
1'
#30
17"
b0 5"
0&"
b10010111 $"
b10 ""
b0 x
1d
b0 b
0S
b1011000 Q
b10 O
b0 G
b10010111 s
b1011000 B
b11 A
b10010111001011000 8
b1111101 $
b1100 -
b1100 >
b1100 E
b1100 W
b1100 h
b1100 v
b1100 *"
b1100 ;"
b10010111001011000 "
b11 .
b10010100101000010010111000101001 %
b10010100101000010010111000101001 <
b10010100101000010010111000101001 D
b10010100101000010010111000101001 U
b10010100101000010010111000101001 f
b10010100101000010010111000101001 u
b10010100101000010010111000101001 ("
b10010100101000010010111000101001 9"
0(
0)
0+
0,
b1 0
0'
#33
b0 n
#35
b0 {
b0 J
b10 4
b10 #"
b10010100101000010010111000101001 @"
b0 <"
b1100 D"
1>"
b10010100101000010010111000101001 /"
b10010111 +"
b1100 3"
0-"
b10 P
b10010100101000010010111000101001 m
b0 i
b1100 q
1k
b10010100101000010010111000101001 \
b1011000 X
b1100 `
0Z
1'
#40
b1110011 $"
b10 ""
0d
b1011101 b
1S
b0 Q
b10 O
b1 G
b1110011 s
b101011101 B
b11 A
b1110011101011101 8
b111010111 $
b10 -
b10 >
b10 E
b10 W
b10 h
b10 v
b10 *"
b10 ;"
b1110011101011101 "
b11 .
b10100111000000110111010001001110 %
b10100111000000110111010001001110 <
b10100111000000110111010001001110 D
b10100111000000110111010001001110 U
b10100111000000110111010001001110 f
b10100111000000110111010001001110 u
b10100111000000110111010001001110 ("
b10100111000000110111010001001110 9"
0(
0)
0+
0,
b10 0
0'
#43
b0 0"
#45
b1 J
b10100111000000110111010001001110 \
b0 X
b10 `
1Z
b10100111000000110111010001001110 m
b1011101 i
b10 q
0k
b10 P
b10100111000000110111010001001110 /"
b1110011 +"
b10 3"
b10100111000000110111010001001110 @"
b10 D"
b10 #"
b10 4
1'
#50
b110001 $"
b10 ""
b111001 b
b10 O
b110001 s
b100111001 B
b11 A
b110001100111001 8
b111100000 $
b100 -
b100 >
b100 E
b100 W
b100 h
b100 v
b100 *"
b100 ;"
b110001100111001 "
b11 .
0&
b1111111010100110111110111111110 %
b1111111010100110111110111111110 <
b1111111010100110111110111111110 D
b1111111010100110111110111111110 U
b1111111010100110111110111111110 f
b1111111010100110111110111111110 u
b1111111010100110111110111111110 ("
b1111111010100110111110111111110 9"
0(
0)
0+
0,
b1 0
0'
#52
0*
#55
b10 4
b10 #"
b1111111010100110111110111111110 @"
b100 D"
b1111111010100110111110111111110 /"
b110001 +"
b100 3"
b10 P
b1111111010100110111110111111110 m
b111001 i
b100 q
b1111111010100110111110111111110 \
b100 `
1'
#60
b1010110 $"
b10 ""
1d
b0 b
0S
b110011 Q
b10 O
b0 G
b1010110 s
b110011 B
b11 A
b1010110000110011 8
b100001111 $
b11 -
b11 >
b11 E
b11 W
b11 h
b11 v
b11 *"
b11 ;"
b1010110000110011 "
b11 .
b101110011100100010100101011100 %
b101110011100100010100101011100 <
b101110011100100010100101011100 D
b101110011100100010100101011100 U
b101110011100100010100101011100 f
b101110011100100010100101011100 u
b101110011100100010100101011100 ("
b101110011100100010100101011100 9"
0(
0)
0+
0,
b10 0
0'
#65
b0 J
b101110011100100010100101011100 \
b110011 X
b11 `
0Z
b101110011100100010100101011100 m
b0 i
b11 q
1k
b10 P
b101110011100100010100101011100 /"
b1010110 +"
b11 3"
b101110011100100010100101011100 @"
b11 D"
b10 #"
b10 4
1'
#66
b10 /
b1 3
b10 2
#70
b11010011 $"
b11010011 Q
b11010011 s
b11010011 B
b11 A
0V
b10 O
0)"
b10 ""
b11010011011010011 8
0=
b11010011 $
b110 -
b110 >
b110 E
b110 W
b110 h
b110 v
b110 *"
b110 ;"
b101111000100111010 "
b11 .
1&
b10010010110100000110000000100101 %
b10010010110100000110000000100101 <
b10010010110100000110000000100101 D
b10010010110100000110000000100101 U
b10010010110100000110000000100101 f
b10010010110100000110000000100101 u
b10010010110100000110000000100101 ("
b10010010110100000110000000100101 9"
0(
0)
0+
0,
b1 0
0'
#75
0!"
0N
b100 7
b10 #"
b10010010110100000110000000100101 @"
b110 D"
b10010010110100000110000000100101 /"
b11010011 +"
b110 3"
02"
b10 P
b10010010110100000110000000100101 m
b110 q
b10010010110100000110000000100101 \
b11010011 X
b110 `
0_
1'
#76
b11 /
b10 2
#80
07"
0:"
b1010110 5"
1&"
1)"
b0 $"
b10 ""
b1 x
0d
0g
b1010110 b
1S
1V
b0 Q
b10 O
b1 G
b101010110 s
b101010110 B
b11 A
b101010110101010110 8
b101010110 $
b1110 -
b1110 >
b1110 E
b1110 W
b1110 h
b1110 v
b1110 *"
b1110 ;"
b11010100101100 "
b11 .
1&
b1010110000011010101111110101100 %
b1010110000011010101111110101100 <
b1010110000011010101111110101100 D
b1010110000011010101111110101100 U
b1010110000011010101111110101100 f
b1010110000011010101111110101100 u
b1010110000011010101111110101100 ("
b1010110000011010101111110101100 9"
0(
0)
0+
0,
b10 0
0'
#85
b1 J
b1 {
b1010110000011010101111110101100 \
b0 X
b1110 `
1_
1Z
b1010110000011010101111110101100 m
b1010110 i
b1110 q
0p
0k
b10 P
b1010110000011010101111110101100 /"
b0 +"
b1110 3"
12"
1-"
b1010110000011010101111110101100 @"
b1010110 <"
b1110 D"
0C"
0>"
b10 #"
b100 7
1'
#86
b100 /
b10 2
#90
17"
b0 5"
0&"
b11010001 $"
b0 x
b10100000 b
b11010001 s
b110100000 B
b11 A
1g
b10 O
1:"
b10 ""
b11010001110100000 8
1=
b101101100 $
b0 -
b0 >
b0 E
b0 W
b0 h
b0 v
b0 *"
b0 ;"
b11010001110100000 "
b11 .
0&
b11101101010011010111100011011010 %
b11101101010011010111100011011010 <
b11101101010011010111100011011010 D
b11101101010011010111100011011010 U
b11101101010011010111100011011010 f
b11101101010011010111100011011010 u
b11101101010011010111100011011010 ("
b11101101010011010111100011011010 9"
0(
0)
0+
0,
b1 0
0'
#95
1!"
b0 {
1N
b10 4
b10 #"
b11101101010011010111100011011010 @"
b0 <"
b0 D"
1C"
1>"
b11101101010011010111100011011010 /"
b11010001 +"
b0 3"
0-"
b10 P
b11101101010011010111100011011010 m
b10100000 i
b0 q
1p
b11101101010011010111100011011010 \
b0 `
1'
#96
b101 /
b10 2
#100
07"
b1010001 5"
1&"
b0 $"
b10 ""
b1 x
b1001100 b
b10 O
b101010001 s
b101001100 B
b11 A
b101010001101001100 8
b11000000 $
b1110 -
b1110 >
b1110 E
b1110 W
b1110 h
b1110 v
b1110 *"
b1110 ;"
b101010001101001100 "
b11 .
b10100010101001001011111001000101 %
b10100010101001001011111001000101 <
b10100010101001001011111001000101 D
b10100010101001001011111001000101 U
b10100010101001001011111001000101 f
b10100010101001001011111001000101 u
b10100010101001001011111001000101 ("
b10100010101001001011111001000101 9"
0(
0)
0+
0,
b10 0
0'
#105
b1 {
b10100010101001001011111001000101 \
b1110 `
b10100010101001001011111001000101 m
b1001100 i
b1110 q
b10 P
b10100010101001001011111001000101 /"
b0 +"
b1110 3"
1-"
b10100010101001001011111001000101 @"
b1010001 <"
b1110 D"
0>"
b10 #"
b10 4
1'
#106
b110 /
b10 2
#110
17"
b0 5"
0&"
b1001000 $"
b10 ""
b0 x
b10000000 b
b10 O
b1001000 s
b110000000 B
b11 A
b1001000110000000 8
b101111110 $
b111 -
b111 >
b111 E
b111 W
b111 h
b111 v
b111 *"
b111 ;"
b1001000110000000 "
b11 .
b10011000101101001101110000110001 %
b10011000101101001101110000110001 <
b10011000101101001101110000110001 D
b10011000101101001101110000110001 U
b10011000101101001101110000110001 f
b10011000101101001101110000110001 u
b10011000101101001101110000110001 ("
b10011000101101001101110000110001 9"
0(
0)
0+
0,
b1 0
0'
#115
b0 {
b10 4
b10 #"
b10011000101101001101110000110001 @"
b0 <"
b111 D"
1>"
b10011000101101001101110000110001 /"
b1001000 +"
b111 3"
0-"
b10 P
b10011000101101001101110000110001 m
b10000000 i
b111 q
b10011000101101001101110000110001 \
b111 `
1'
#116
b111 /
b10 2
#120
07"
b1100100 5"
1&"
b0 $"
b10 ""
b1 x
b111111 b
b10 O
b101100100 s
b100111111 B
b11 A
b101100100100111111 8
b10000011 $
b0 -
b0 >
b0 E
b0 W
b0 h
b0 v
b0 *"
b0 ;"
b101100100100111111 "
b11 .
b1111000100001111101111111110001 %
b1111000100001111101111111110001 <
b1111000100001111101111111110001 D
b1111000100001111101111111110001 U
b1111000100001111101111111110001 f
b1111000100001111101111111110001 u
b1111000100001111101111111110001 ("
b1111000100001111101111111110001 9"
0(
0)
0+
0,
b10 0
0'
#125
b1 {
b1111000100001111101111111110001 \
b0 `
b1111000100001111101111111110001 m
b111111 i
b0 q
b10 P
b1111000100001111101111111110001 /"
b0 +"
b0 3"
1-"
b1111000100001111101111111110001 @"
b1100100 <"
b0 D"
0>"
b10 #"
b10 4
1'
#126
b1000 /
b10 2
#130
17"
b0 5"
0&"
0)"
b10011110 $"
b0 x
1d
b0 b
0S
0V
b10011110 Q
b0 G
b10011110 s
b10011110 B
b11 A
1g
b10 O
1:"
b10 ""
b10011110010011110 8
0=
b10011110 $
b10 -
b10 >
b10 E
b10 W
b10 h
b10 v
b10 *"
b10 ;"
b100001010011101000 "
b11 .
1&
b10101000101111111100100001010001 %
b10101000101111111100100001010001 <
b10101000101111111100100001010001 D
b10101000101111111100100001010001 U
b10101000101111111100100001010001 f
b10101000101111111100100001010001 u
b10101000101111111100100001010001 ("
b10101000101111111100100001010001 9"
0(
0)
0+
0,
b1 0
0'
#135
0!"
b0 {
0N
b0 J
b100 7
b10 #"
b10101000101111111100100001010001 @"
b0 <"
b10 D"
1>"
b10101000101111111100100001010001 /"
b10011110 +"
b10 3"
02"
0-"
b10 P
b10101000101111111100100001010001 m
b0 i
b10 q
1k
b10101000101111111100100001010001 \
b10011110 X
b10 `
0_
0Z
1'
#136
b1001 /
b10 2
#140
07"
b1011110 5"
1&"
b0 $"
b1 x
0d
b1101100 b
1S
b0 Q
b1 G
b101011110 s
b101101100 B
b11 A
1V
b10 O
1)"
b10 ""
b101011110101101100 8
1=
b100100101 $
b1010 -
b1010 >
b1010 E
b1010 W
b1010 h
b1010 v
b1010 *"
b1010 ;"
b101011110101101100 "
b11 .
0&
b11000001110011110101101010000011 %
b11000001110011110101101010000011 <
b11000001110011110101101010000011 D
b11000001110011110101101010000011 U
b11000001110011110101101010000011 f
b11000001110011110101101010000011 u
b11000001110011110101101010000011 ("
b11000001110011110101101010000011 9"
0(
0)
0+
0,
b10 0
0'
#145
1N
b1 J
1!"
b1 {
b11000001110011110101101010000011 \
b0 X
b1010 `
1_
1Z
b11000001110011110101101010000011 m
b1101100 i
b1010 q
0k
b10 P
b11000001110011110101101010000011 /"
b0 +"
b1010 3"
12"
1-"
b11000001110011110101101010000011 @"
b1011110 <"
b1010 D"
0>"
b10 #"
b10 4
1'
#146
b1010 /
b10 2
#150
17"
b0 5"
0&"
0)"
b11010100 $"
b0 x
1d
b0 b
0S
0V
b11010100 Q
b0 G
b11010100 s
b11010100 B
b11 A
1g
b10 O
1:"
b10 ""
b11010100011010100 8
0=
b11010100 $
b1100 -
b1100 >
b1100 E
b1100 W
b1100 h
b1100 v
b1100 *"
b1100 ;"
b111100110010100 "
b11 .
1&
b10110111101110000010101001101111 %
b10110111101110000010101001101111 <
b10110111101110000010101001101111 D
b10110111101110000010101001101111 U
b10110111101110000010101001101111 f
b10110111101110000010101001101111 u
b10110111101110000010101001101111 ("
b10110111101110000010101001101111 9"
0(
0)
0+
0,
b1 0
0'
#155
0!"
b0 {
0N
b0 J
b100 7
b10 #"
b10110111101110000010101001101111 @"
b0 <"
b1100 D"
1>"
b10110111101110000010101001101111 /"
b11010100 +"
b1100 3"
02"
0-"
b10 P
b10110111101110000010101001101111 m
b0 i
b1100 q
1k
b10110111101110000010101001101111 \
b11010100 X
b1100 `
0_
0Z
1'
#156
b1011 /
b10 2
#160
b11110111 $"
b10 ""
b11110111 Q
b10 O
b11110111 s
b11110111 B
b11 A
b11110111011110111 8
b11110111 $
b11 -
b11 >
b11 E
b11 W
b11 h
b11 v
b11 *"
b11 ;"
b10100010100010110 "
b11 .
1&
b11001001010010010000001010010010 %
b11001001010010010000001010010010 <
b11001001010010010000001010010010 D
b11001001010010010000001010010010 U
b11001001010010010000001010010010 f
b11001001010010010000001010010010 u
b11001001010010010000001010010010 ("
b11001001010010010000001010010010 9"
0(
0)
0+
0,
b10 0
0'
#165
b11001001010010010000001010010010 \
b11110111 X
b11 `
b11001001010010010000001010010010 m
b11 q
b10 P
b11001001010010010000001010010010 /"
b11110111 +"
b11 3"
b11001001010010010000001010010010 @"
b11 D"
b10 #"
b100 7
1'
#166
b1100 /
b10 2
#170
b1101000 $"
b10 ""
b1101000 Q
b10 O
b1101000 s
b1101000 B
b11 A
b1101000001101000 8
b1101000 $
b110 -
b110 >
b110 E
b110 W
b110 h
b110 v
b110 *"
b110 ;"
b101010101100110001 "
b11 .
1&
b101111010010010101001101011110 %
b101111010010010101001101011110 <
b101111010010010101001101011110 D
b101111010010010101001101011110 U
b101111010010010101001101011110 f
b101111010010010101001101011110 u
b101111010010010101001101011110 ("
b101111010010010101001101011110 9"
0(
0)
0+
0,
b1 0
0'
#175
b100 7
b10 #"
b101111010010010101001101011110 @"
b110 D"
b101111010010010101001101011110 /"
b1101000 +"
b110 3"
b10 P
b101111010010010101001101011110 m
b110 q
b101111010010010101001101011110 \
b1101000 X
b110 `
1'
#176
b1101 /
b10 2
#180
07"
0:"
b10110101 5"
1&"
1)"
b0 $"
b10 ""
b1 x
0d
0g
b10110101 b
1S
1V
b0 Q
b10 O
b1 G
b110110101 s
b110110101 B
b11 A
b110110101110110101 8
b110110101 $
b1100 -
b1100 >
b1100 E
b1100 W
b1100 h
b1100 v
b1100 *"
b1100 ;"
b100111111000001000 "
b11 .
1&
b1010110000011101110111110101100 %
b1010110000011101110111110101100 <
b1010110000011101110111110101100 D
b1010110000011101110111110101100 U
b1010110000011101110111110101100 f
b1010110000011101110111110101100 u
b1010110000011101110111110101100 ("
b1010110000011101110111110101100 9"
0(
0)
0+
0,
b10 0
0'
#185
b1 J
b1 {
b1010110000011101110111110101100 \
b0 X
b1100 `
1_
1Z
b1010110000011101110111110101100 m
b10110101 i
b1100 q
0p
0k
b10 P
b1010110000011101110111110101100 /"
b0 +"
b1100 3"
12"
1-"
b1010110000011101110111110101100 @"
b10110101 <"
b1100 D"
0C"
0>"
b10 #"
b100 7
1'
#186
b1110 /
b10 2
#190
17"
b0 5"
0&"
b1111101 $"
b0 x
1d
b0 b
0S
b1011110 Q
b0 G
b1111101 s
b1011110 B
b11 A
1g
b10 O
1:"
b10 ""
b1111101001011110 8
1=
b101 $
b1101 -
b1101 >
b1101 E
b1101 W
b1101 h
b1101 v
b1101 *"
b1101 ;"
b1111101001011110 "
b11 .
0&
b11000110100001111000101010001101 %
b11000110100001111000101010001101 <
b11000110100001111000101010001101 D
b11000110100001111000101010001101 U
b11000110100001111000101010001101 f
b11000110100001111000101010001101 u
b11000110100001111000101010001101 ("
b11000110100001111000101010001101 9"
0(
0)
0+
0,
b1 0
0'
#195
1!"
b0 {
1N
b0 J
b10 4
b10 #"
b11000110100001111000101010001101 @"
b0 <"
b1101 D"
1C"
1>"
b11000110100001111000101010001101 /"
b1111101 +"
b1101 3"
0-"
b10 P
b11000110100001111000101010001101 m
b0 i
b1101 q
1p
1k
b11000110100001111000101010001101 \
b1011110 X
b1101 `
0Z
1'
#196
b1111 /
b10 2
#200
b110100 $"
b10 ""
0d
b10110100 b
1S
b0 Q
b10 O
b1 G
b110100 s
b110110100 B
b11 A
b110100110110100 8
b111110001 $
b111 -
b111 >
b111 E
b111 W
b111 h
b111 v
b111 *"
b111 ;"
b110100110110100 "
b11 .
b10110100100011010001100101101 %
b10110100100011010001100101101 <
b10110100100011010001100101101 D
b10110100100011010001100101101 U
b10110100100011010001100101101 f
b10110100100011010001100101101 u
b10110100100011010001100101101 ("
b10110100100011010001100101101 9"
0(
0)
0+
0,
b10 0
0'
#205
b1 J
b10110100100011010001100101101 \
b0 X
b111 `
1Z
b10110100100011010001100101101 m
b10110100 i
b111 q
0k
b10 P
b10110100100011010001100101101 /"
b110100 +"
b111 3"
b10110100100011010001100101101 @"
b111 D"
b10 #"
b10 4
1'
#206
b10000 /
b10 2
#210
b1011110 $"
1d
b0 b
0S
0V
b1011110 Q
b0 G
b1011110 s
b1011110 B
b11 A
1g
b10 O
0)"
b10 ""
b1011110001011110 8
0=
b1011110 $
b0 -
b0 >
b0 E
b0 W
b0 h
b0 v
b0 *"
b0 ;"
b1100100010110100 "
b11 .
1&
b100100000101101011100101001000 %
b100100000101101011100101001000 <
b100100000101101011100101001000 D
b100100000101101011100101001000 U
b100100000101101011100101001000 f
b100100000101101011100101001000 u
b100100000101101011100101001000 ("
b100100000101101011100101001000 9"
0(
0)
0+
0,
b1 0
0'
#215
0!"
0N
b0 J
b100 7
b10 #"
b100100000101101011100101001000 @"
b0 D"
b100100000101101011100101001000 /"
b1011110 +"
b0 3"
02"
b10 P
b100100000101101011100101001000 m
b0 i
b0 q
1k
b100100000101101011100101001000 \
b1011110 X
b0 `
0_
0Z
1'
#216
b10001 /
b10 2
#220
b10011011 $"
b10 ""
b10011011 Q
b10 O
b10011011 s
b10011011 B
b11 A
b10011011010011011 8
b10011011 $
b1011 -
b1011 >
b1011 E
b1011 W
b1011 h
b1011 v
b1011 *"
b1011 ;"
b10101011111001101 "
b11 .
1&
b1011110100111010010111110111101 %
b1011110100111010010111110111101 <
b1011110100111010010111110111101 D
b1011110100111010010111110111101 U
b1011110100111010010111110111101 f
b1011110100111010010111110111101 u
b1011110100111010010111110111101 ("
b1011110100111010010111110111101 9"
0(
0)
0+
0,
b10 0
0'
#225
b1011110100111010010111110111101 \
b10011011 X
b1011 `
b1011110100111010010111110111101 m
b1011 q
b10 P
b1011110100111010010111110111101 /"
b10011011 +"
b1011 3"
b1011110100111010010111110111101 @"
b1011 D"
b10 #"
b100 7
1'
#226
b10010 /
b10 2
#230
07"
0:"
b11000010 5"
1&"
1)"
b0 $"
b10 ""
b1 x
0d
0g
b11000010 b
1S
1V
b0 Q
b10 O
b1 G
b111000010 s
b111000010 B
b11 A
b111000010111000010 8
b111000010 $
b1010 -
b1010 >
b1010 E
b1010 W
b1010 h
b1010 v
b1010 *"
b1010 ;"
b100011101111100000 "
b11 .
1&
b10011000110000000001100100110 %
b10011000110000000001100100110 <
b10011000110000000001100100110 D
b10011000110000000001100100110 U
b10011000110000000001100100110 f
b10011000110000000001100100110 u
b10011000110000000001100100110 ("
b10011000110000000001100100110 9"
0(
0)
0+
0,
b1 0
0'
