verilog/rtl/rams/ram_256x32_2r1w/srimulation.vcd
$date
	Wed Nov 24 03:18:12 2021
$end
$version
	Icarus Verilog
$end
$timescale
	1s
$end
$scope module ram_generic_nr1w_tb $end
$var wire 64 ! RData_pck_sram [63:0] $end
$var reg 16 " RAddr_pck [15:0] $end
$var reg 64 # RData_pck_golden [63:0] $end
$var reg 8 $ WAddr_pck [7:0] $end
$var reg 32 % WData_pck [31:0] $end
$var reg 1 & WEnb $end
$var reg 1 ' clk $end
$var reg 1 ( raw_addr $end
$var reg 1 ) rdw_addr $end
$var reg 1 * rst $end
$var reg 1 + waw_addr $end
$var reg 1 , wdw_addr $end
$var reg 4 - wmask_pck [3:0] $end
$var integer 32 . _i_ [31:0] $end
$var integer 32 / cycc [31:0] $end
$var integer 32 0 i [31:0] $end
$var integer 32 1 j [31:0] $end
$var integer 32 2 p [31:0] $end
$var integer 32 3 pass [31:0] $end
$var integer 32 4 q [31:0] $end
$var integer 32 5 r [31:0] $end
$var integer 32 6 rep_fd [31:0] $end
$var integer 32 7 s [31:0] $end
$scope module ram_nr1w $end
$var wire 16 8 addr [15:0] $end
$var wire 16 9 addr1 [15:0] $end
$var wire 1 ' clk $end
$var wire 1 ' clk1 $end
$var wire 1 : csb $end
$var wire 1 ; csb1 $end
$var wire 32 < din [31:0] $end
$var wire 1 = web $end
$var wire 4 > wmask [3:0] $end
$var reg 64 ? dout [63:0] $end
$var reg 64 @ dout1 [63:0] $end
$var integer 32 A _i_ [31:0] $end
$scope begin genblk1[0] $end
$scope module ram_1rw $end
$var wire 8 B addr [7:0] $end
$var wire 8 C addr1 [7:0] $end
$var wire 1 ' clk $end
$var wire 1 ' clk1 $end
$var wire 1 : csb $end
$var wire 1 ; csb1 $end
$var wire 32 D din [31:0] $end
$var wire 1 = web $end
$var wire 4 E wmask [3:0] $end
$var wire 1 F Addr_sel_1 $end
$var wire 1 G Addr_sel $end
$var reg 32 H RData_out [31:0] $end
$var reg 32 I RData_out_1 [31:0] $end
$var reg 1 J Raddr_sel $end
$var reg 1 K Raddr_sel_1 $end
$var reg 32 L dout [31:0] $end
$var reg 32 M dout1 [31:0] $end
$var reg 1 N web_reg $end
$var integer 32 O i [31:0] $end
$var integer 32 P j [31:0] $end
$scope begin genblk1[0] $end
$scope begin genblk4 $end
$scope module ram_i $end
$var wire 8 Q addr0 [7:0] $end
$var wire 8 R addr1 [7:0] $end
$var wire 1 ' clk0 $end
$var wire 1 ' clk1 $end
$var wire 1 S csb0 $end
$var wire 1 T csb1 $end
$var wire 32 U din0 [31:0] $end
$var wire 1 V web0 $end
$var wire 4 W wmask0 [3:0] $end
$var reg 8 X addr0_reg [7:0] $end
$var reg 8 Y addr1_reg [7:0] $end
$var reg 1 Z csb0_reg $end
$var reg 1 [ csb1_reg $end
$var reg 32 \ din0_reg [31:0] $end
$var reg 32 ] dout0 [31:0] $end
$var reg 32 ^ dout1 [31:0] $end
$var reg 1 _ web0_reg $end
$var reg 4 ` wmask0_reg [3:0] $end
$var integer 32 a i [31:0] $end
$scope begin MEM_READ0 $end
$upscope $end
$scope begin MEM_READ1 $end
$upscope $end
$scope begin MEM_WRITE0 $end
$upscope $end
$upscope $end
$upscope $end
$upscope $end
$upscope $end
$upscope $end
$scope begin genblk1[1] $end
$scope module ram_1rw $end
$var wire 8 b addr [7:0] $end
$var wire 8 c addr1 [7:0] $end
$var wire 1 ' clk $end
$var wire 1 ' clk1 $end
$var wire 1 : csb $end
$var wire 1 ; csb1 $end
$var wire 32 d din [31:0] $end
$var wire 1 = web $end
$var wire 4 e wmask [3:0] $end
$var wire 1 f Addr_sel_1 $end
$var wire 1 g Addr_sel $end
$var reg 32 h RData_out [31:0] $end
$var reg 32 i RData_out_1 [31:0] $end
$var reg 1 j Raddr_sel $end
$var reg 1 k Raddr_sel_1 $end
$var reg 32 l dout [31:0] $end
$var reg 32 m dout1 [31:0] $end
$var reg 1 n web_reg $end
$var integer 32 o i [31:0] $end
$var integer 32 p j [31:0] $end
$scope begin genblk1[0] $end
$scope begin genblk4 $end
$scope module ram_i $end
$var wire 8 q addr0 [7:0] $end
$var wire 8 r addr1 [7:0] $end
$var wire 1 ' clk0 $end
$var wire 1 ' clk1 $end
$var wire 1 s csb0 $end
$var wire 1 t csb1 $end
$var wire 32 u din0 [31:0] $end
$var wire 1 v web0 $end
$var wire 4 w wmask0 [3:0] $end
$var reg 8 x addr0_reg [7:0] $end
$var reg 8 y addr1_reg [7:0] $end
$var reg 1 z csb0_reg $end
$var reg 1 { csb1_reg $end
$var reg 32 | din0_reg [31:0] $end
$var reg 32 } dout0 [31:0] $end
$var reg 32 ~ dout1 [31:0] $end
$var reg 1 !" web0_reg $end
$var reg 4 "" wmask0_reg [3:0] $end
$var integer 32 #" i [31:0] $end
$scope begin MEM_READ0 $end
$upscope $end
$scope begin MEM_READ1 $end
$upscope $end
$scope begin MEM_WRITE0 $end
$upscope $end
$upscope $end
$upscope $end
$upscope $end
$upscope $end
$upscope $end
$upscope $end
$scope task genInitFiles $end
$var reg 32 $" DEPTH [31:0] $end
$var reg 160 %" FILEN [1:160] $end
$var reg 256 &" INITVAL [255:0] $end
$var reg 1 '" RAND $end
$var reg 32 (" WIDTH [31:0] $end
$var reg 256 )" ramdata [255:0] $end
$var integer 32 *" addr [31:0] $end
$var integer 32 +" hex_fd [31:0] $end
$var integer 32 ," mif_fd [31:0] $end
$upscope $end
$upscope $end
$enddefinitions $end
#0
$dumpvars
b10000000000000000000000000000100 ,"
b10000000000000000000000000000011 +"
b100000000 *"
b10101101111001111101000001011011 )"
b100000 ("
1'"
b0 &"
b110100101101110011010010111010001011111011100100110000101101101 %"
b100000000 $"
b100000000 #"
bx ""
x!"
bx ~
bx }
bx |
x{
xz
bx y
bx x
bx w
xv
bx u
1t
xs
b0 r
bx q
bx p
b1 o
xn
bx m
bx l
xk
xj
bx i
bx h
xg
0f
bx e
bx d
b0 c
bx b
b100000000 a
bx `
x_
bx ^
bx ]
bx \
x[
xZ
bx Y
bx X
bx W
xV
bx U
1T
xS
b0 R
bx Q
bx P
b1 O
xN
bx M
bx L
xK
xJ
bx I
bx H
xG
0F
bx E
bx D
b0 C
bx B
b11 A
bx @
bx ?
bx >
x=
bx <
1;
0:
b0 9
bx 8
bx 7
b10000000000000000000000000000011 6
b100000000 5
bx 4
bx 3
bx 2
bx 1
bx 0
b1 /
bx .
bx -
x,
x+
1*
x)
x(
0'
x&
bx %
bx $
bx #
bx "
bx !
$end
#5
0K
0k
b0 Y
1[
b1 P
b0 y
1{
b1 p
b10 4
1'
#10
0s
b1001 q
0g
0S
b1011100 Q
0G
b1001 b
b1011100 B
b11 A
1V
b1 O
1v
b1 o
b100101011100 8
1=
b100101 $
b0 -
b0 >
b0 E
b0 W
b0 e
b0 w
b100101011100 "
b11 .
0&
b101000110001100010011101010001 %
b101000110001100010011101010001 <
b101000110001100010011101010001 D
b101000110001100010011101010001 U
b101000110001100010011101010001 d
b101000110001100010011101010001 u
0(
0)
b0 1
0+
0,
b1 0
0'
#15
1n
0j
1N
0J
b10 4
b1 p
b101000110001100010011101010001 |
b1001 x
b0 ""
1!"
0z
b1 P
b101000110001100010011101010001 \
b1011100 X
b0 `
1_
0Z
1'
#20
b110001 q
b1 o
b10011101 Q
b1 O
b110001 b
b10011101 B
b11 A
b11000110011101 8
b11001100 $
b1011 -
b1011 >
b1011 E
b1011 W
b1011 e
b1011 w
b11000110011101 "
b11 .
0&
b10101000100111101110100101010 %
b10101000100111101110100101010 <
b10101000100111101110100101010 D
b10101000100111101110100101010 U
b10101000100111101110100101010 d
b10101000100111101110100101010 u
0(
0)
0+
0,
b10 0
0'
#23
b0 }
b0 ]
#25
b0 #
b11 .
b0 !
b0 ?
b11 A
b0 L
b0 l
b10101000100111101110100101010 \
b10011101 X
b1011 `
b0 H
b1 P
b10101000100111101110100101010 |
b110001 x
b1011 ""
b0 h
b1 p
b10 4
1'
#30
b11100100 q
b1 o
b1110010 Q
b1 O
b11100100 b
b1110010 B
b11 A
b1110010001110010 8
b101100 $
b111 -
b111 >
b111 E
b111 W
b111 e
b111 w
b1110010001110010 "
b11 .
0&
b1010111110000011101000110101111 %
b1010111110000011101000110101111 <
b1010111110000011101000110101111 D
b1010111110000011101000110101111 U
b1010111110000011101000110101111 d
b1010111110000011101000110101111 u
0(
0)
0+
0,
b1 0
0'
#35
b10 4
b1 p
b1010111110000011101000110101111 |
b11100100 x
b111 ""
b1 P
b1010111110000011101000110101111 \
b1110010 X
b111 `
1'
#40
b11010001 q
b1 o
b111000 Q
b1 O
b11010001 b
b111000 B
b11 A
b1101000100111000 8
b11100110 $
b1000 -
b1000 >
b1000 E
b1000 W
b1000 e
b1000 w
b1101000100111000 "
b11 .
b10110101010101011101111001101010 %
b10110101010101011101111001101010 <
b10110101010101011101111001101010 D
b10110101010101011101111001101010 U
b10110101010101011101111001101010 d
b10110101010101011101111001101010 u
0(
0)
0+
0,
b10 0
0'
#45
b10110101010101011101111001101010 \
b111000 X
b1000 `
b1 P
b10110101010101011101111001101010 |
b11010001 x
b1000 ""
b1 p
b10 4
1'
#50
b10111100 q
b1 o
b10111101 Q
b1 O
b10111100 b
b10111101 B
b11 A
b1011110010111101 8
b10101000 $
b1001 -
b1001 >
b1001 E
b1001 W
b1001 e
b1001 w
b1011110010111101 "
b11 .
b10101110001000111100111001011100 %
b10101110001000111100111001011100 <
b10101110001000111100111001011100 D
b10101110001000111100111001011100 U
b10101110001000111100111001011100 d
b10101110001000111100111001011100 u
0(
0)
0+
0,
b1 0
0'
#52
0*
#55
b10 4
b1 p
b10101110001000111100111001011100 |
b10111100 x
b1001 ""
b1 P
b10101110001000111100111001011100 \
b10111101 X
b1001 `
1'
#60
b111100 q
b111100 Q
b111100 b
b111100 B
b11 A
0V
b1 O
0v
b1 o
b11110000111100 8
0=
b111100 $
b1101 -
b1101 >
b1101 E
b1101 W
b1101 e
b1101 w
b1000011101100100 "
b11 .
1&
b110011100010000001100001100 %
b110011100010000001100001100 <
b110011100010000001100001100 D
b110011100010000001100001100 U
b110011100010000001100001100 d
b110011100010000001100001100 u
0(
0)
0+
0,
b10 0
0'
#65
0N
0n
b110011100010000001100001100 \
b111100 X
b1101 `
0_
b1 P
b110011100010000001100001100 |
b111100 x
b1101 ""
0!"
b1 p
b100 7
1'
#66
b10 /
b1 3
b10 2
#70
b11011001 q
b10101100 Q
b11011001 b
b10101100 B
b11 A
1V
b1 O
1v
b1 o
b1101100110101100 8
1=
b1101010 $
b101 -
b101 >
b101 E
b101 W
b101 e
b101 w
b1101100110101100 "
b11 .
0&
b10111010111101001110001001110101 %
b10111010111101001110001001110101 <
b10111010111101001110001001110101 D
b10111010111101001110001001110101 U
b10111010111101001110001001110101 d
b10111010111101001110001001110101 u
0(
0)
0+
0,
b1 0
0'
#75
1n
1N
b10 4
b1 p
b10111010111101001110001001110101 |
b11011001 x
b101 ""
1!"
b1 P
b10111010111101001110001001110101 \
b10101100 X
b101 `
1_
1'
#76
b11 /
b10 2
#80
b10 q
b1 o
b1 Q
b1 O
b10 b
b1 B
b11 A
b1000000001 8
b10011100 $
b1000 -
b1000 >
b1000 E
b1000 W
b1000 e
b1000 w
b1000000001 "
b11 .
b1001111110010100100000010 %
b1001111110010100100000010 <
b1001111110010100100000010 D
b1001111110010100100000010 U
b1001111110010100100000010 d
b1001111110010100100000010 u
0(
0)
0+
0,
b10 0
0'
#85
b1001111110010100100000010 \
b1 X
b1000 `
b1 P
b1001111110010100100000010 |
b10 x
b1000 ""
b1 p
b10 4
1'
#86
b100 /
b10 2
#90
b10000100 q
b10000100 Q
b10000100 b
b10000100 B
b11 A
0V
b1 O
0v
b1 o
b1000010010000100 8
0=
b10000100 $
b1101 -
b1101 >
b1101 E
b1101 W
b1101 e
b1101 w
b111010001000110 "
b11 .
1&
b1111010111101101010101111110101 %
b1111010111101101010101111110101 <
b1111010111101101010101111110101 D
b1111010111101101010101111110101 U
b1111010111101101010101111110101 d
b1111010111101101010101111110101 u
0(
0)
0+
0,
b1 0
0'
#95
0n
0N
b100 7
b1 p
b1111010111101101010101111110101 |
b10000100 x
b1101 ""
0!"
b1 P
b1111010111101101010101111110101 \
b10000100 X
b1101 `
0_
1'
#96
b101 /
b10 2
#100
b111101 q
b1 o
b111101 Q
b1 O
b111101 b
b111101 B
b11 A
b11110100111101 8
b111101 $
b1 -
b1 >
b1 E
b1 W
b1 e
b1 w
b1000011010100000 "
b11 .
1&
b10110110010111111100100101101 %
b10110110010111111100100101101 <
b10110110010111111100100101101 D
b10110110010111111100100101101 U
b10110110010111111100100101101 d
b10110110010111111100100101101 u
0(
0)
0+
0,
b10 0
0'
#105
b10110110010111111100100101101 \
b111101 X
b1 `
b1 P
b10110110010111111100100101101 |
b111101 x
b1 ""
b1 p
b100 7
1'
#106
b110 /
b10 2
#110
b1011110 q
b1 o
b1011110 Q
b1 O
b1011110 b
b1011110 B
b11 A
b101111001011110 8
b1011110 $
b110 -
b110 >
b110 E
b110 W
b110 e
b110 w
b10100010011000 "
b11 .
1&
b100110101111110011111101001101 %
b100110101111110011111101001101 <
b100110101111110011111101001101 D
b100110101111110011111101001101 U
b100110101111110011111101001101 d
b100110101111110011111101001101 u
0(
0)
0+
0,
b1 0
0'
#115
b100 7
b1 p
b100110101111110011111101001101 |
b1011110 x
b110 ""
b1 P
b100110101111110011111101001101 \
b1011110 X
b110 `
1'
#116
b111 /
b10 2
#120
b1111010 q
b1 o
b1111010 Q
b1 O
b1111010 b
b1111010 B
b11 A
b111101001111010 8
b1111010 $
b1100 -
b1100 >
b1100 E
b1100 W
b1100 e
b1100 w
b1011010110101110 "
b11 .
1&
b11011100010000110000100010111000 %
b11011100010000110000100010111000 <
b11011100010000110000100010111000 D
b11011100010000110000100010111000 U
b11011100010000110000100010111000 d
b11011100010000110000100010111000 u
0(
0)
0+
0,
b10 0
0'
#125
b11011100010000110000100010111000 \
b1111010 X
b1100 `
b1 P
b11011100010000110000100010111000 |
b1111010 x
b1100 ""
b1 p
b100 7
1'
#126
b1000 /
b10 2
#130
b11001001 q
b100011 Q
b11001001 b
b100011 B
b11 A
1V
b1 O
1v
b1 o
b1100100100100011 8
1=
b11111101 $
b1000 -
b1000 >
b1000 E
b1000 W
b1000 e
b1000 w
b1100100100100011 "
b11 .
0&
b1011011110100111101101110110111 %
b1011011110100111101101110110111 <
b1011011110100111101101110110111 D
b1011011110100111101101110110111 U
b1011011110100111101101110110111 d
b1011011110100111101101110110111 u
0(
0)
0+
0,
b1 0
0'
#135
1n
1N
b10 4
b1 p
b1011011110100111101101110110111 |
b11001001 x
b1000 ""
1!"
b1 P
b1011011110100111101101110110111 \
b100011 X
b1000 `
1_
1'
#136
b1001 /
b10 2
#140
b10110100 q
b1 o
b10101100 Q
b1 O
b10110100 b
b10101100 B
b11 A
b1011010010101100 8
b10110001 $
b1001 -
b1001 >
b1001 E
b1001 W
b1001 e
b1001 w
b1011010010101100 "
b11 .
b11001000001110001111010010010000 %
b11001000001110001111010010010000 <
b11001000001110001111010010010000 D
b11001000001110001111010010010000 U
b11001000001110001111010010010000 d
b11001000001110001111010010010000 u
0(
0)
0+
0,
b10 0
0'
#145
b11001000001110001111010010010000 \
b10101100 X
b1001 `
b1 P
b11001000001110001111010010010000 |
b10110100 x
b1001 ""
b1 p
b10 4
1'
#146
b1010 /
b10 2
#150
b1110 q
b1110 Q
b1110 b
b1110 B
b11 A
0V
b1 O
0v
b1 o
b111000001110 8
0=
b1110 $
b101 -
b101 >
b101 E
b101 W
b101 e
b101 w
b110100001011100 "
b11 .
1&
b1101100011010100110110111011000 %
b1101100011010100110110111011000 <
b1101100011010100110110111011000 D
b1101100011010100110110111011000 U
b1101100011010100110110111011000 d
b1101100011010100110110111011000 u
0(
0)
0+
0,
b1 0
0'
#155
0n
0N
b100 7
b1 p
b1101100011010100110110111011000 |
b1110 x
b101 ""
0!"
b1 P
b1101100011010100110110111011000 \
b1110 X
b101 `
0_
1'
#156
b1011 /
b10 2
#160
b1101110 q
b1000101 Q
b1101110 b
b1000101 B
b11 A
1V
b1 O
1v
b1 o
b110111001000101 8
1=
b1000110 $
b111 -
b111 >
b111 E
b111 W
b111 e
b111 w
b110111001000101 "
b11 .
0&
b1100100101111000110100011001 %
b1100100101111000110100011001 <
b1100100101111000110100011001 D
b1100100101111000110100011001 U
b1100100101111000110100011001 d
b1100100101111000110100011001 u
0(
0)
0+
0,
b10 0
0'
#165
1N
1n
b1100100101111000110100011001 \
b1000101 X
b111 `
1_
b1 P
b1100100101111000110100011001 |
b1101110 x
b111 ""
1!"
b1 p
b10 4
1'
#166
b1100 /
b10 2
#170
b10011111 q
b10011111 Q
b10011111 b
b10011111 B
b11 A
0V
b1 O
0v
b1 o
b1001111110011111 8
0=
b10011111 $
b1010 -
b1010 >
b1010 E
b1010 W
b1010 e
b1010 w
b110001011111001 "
b11 .
1&
b11001110100100010100000110 %
b11001110100100010100000110 <
b11001110100100010100000110 D
b11001110100100010100000110 U
b11001110100100010100000110 d
b11001110100100010100000110 u
0(
0)
0+
0,
b1 0
0'
#175
0n
0N
b100 7
b1 p
b11001110100100010100000110 |
b10011111 x
b1010 ""
0!"
b1 P
b11001110100100010100000110 \
b10011111 X
b1010 `
0_
1'
#176
b1101 /
b10 2
#180
b1101 q
b11100010 Q
b1101 b
b11100010 B
b11 A
1V
b1 O
1v
b1 o
b110111100010 8
1=
b1100 $
b101 -
b101 >
b101 E
b101 W
b101 e
b101 w
b110111100010 "
b11 .
0&
b1011001001101001110100110110010 %
b1011001001101001110100110110010 <
b1011001001101001110100110110010 D
b1011001001101001110100110110010 U
b1011001001101001110100110110010 d
b1011001001101001110100110110010 u
0(
0)
0+
0,
b10 0
0'
#185
1N
1n
b1011001001101001110100110110010 \
b11100010 X
b101 `
1_
b1 P
b1011001001101001110100110110010 |
b1101 x
b101 ""
1!"
b1 p
b10 4
1'
#186
b1110 /
b10 2
#190
b1111100 q
b1 o
b1100001 Q
b1 O
b1111100 b
b1100001 B
b11 A
b111110001100001 8
b11110100 $
b111 -
b111 >
b111 E
b111 W
b111 e
b111 w
b111110001100001 "
b11 .
b1000100100000111010110110001001 %
b1000100100000111010110110001001 <
b1000100100000111010110110001001 D
b1000100100000111010110110001001 U
b1000100100000111010110110001001 d
b1000100100000111010110110001001 u
0(
0)
0+
0,
b1 0
0'
#195
b10 4
b1 p
b1000100100000111010110110001001 |
b1111100 x
b111 ""
b1 P
b1000100100000111010110110001001 \
b1100001 X
b111 `
1'
#196
b1111 /
b10 2
#200
b1101 q
b1101 Q
b1101 b
b1101 B
b11 A
0V
b1 O
0v
b1 o
b110100001101 8
0=
b1101 $
b11 -
b11 >
b11 E
b11 W
b11 e
b11 w
b1001001011010110 "
b11 .
1&
b1010101110111011000110110101011 %
b1010101110111011000110110101011 <
b1010101110111011000110110101011 D
b1010101110111011000110110101011 U
b1010101110111011000110110101011 d
b1010101110111011000110110101011 u
0(
0)
0+
0,
b10 0
0'
#205
0N
0n
b1010101110111011000110110101011 \
b1101 X
b11 `
0_
b1 P
b1010101110111011000110110101011 |
b1101 x
b11 ""
0!"
b1 p
b100 7
1'
#206
b10000 /
b10 2
#210
b10000010 q
b101110 Q
b10000010 b
b101110 B
b11 A
1V
b1 O
1v
b1 o
b1000001000101110 8
1=
b11000000 $
b100 -
b100 >
b100 E
b100 W
b100 e
b100 w
b1000001000101110 "
b11 .
0&
b11011001101101000101100110110 %
b11011001101101000101100110110 <
b11011001101101000101100110110 D
b11011001101101000101100110110 U
b11011001101101000101100110110 d
b11011001101101000101100110110 u
0(
0)
0+
0,
b1 0
0'
#215
1n
1N
b10 4
b1 p
b11011001101101000101100110110 |
b10000010 x
b100 ""
1!"
b1 P
b11011001101101000101100110110 \
b101110 X
b100 `
1_
1'
#216
b10001 /
b10 2
#220
b11010101 q
b1 o
b11110010 Q
b1 O
b11010101 b
b11110010 B
b11 A
b1101010111110010 8
b10111100 $
b1000 -
b1000 >
b1000 E
b1000 W
b1000 e
b1000 w
b1101010111110010 "
b11 .
b10010111010110011000100000101110 %
b10010111010110011000100000101110 <
b10010111010110011000100000101110 D
b10010111010110011000100000101110 U
b10010111010110011000100000101110 d
b10010111010110011000100000101110 u
0(
0)
0+
0,
b10 0
0'
#225
b10010111010110011000100000101110 \
b11110010 X
b1000 `
b1 P
b10010111010110011000100000101110 |
b11010101 x
b1000 ""
b1 p
b10 4
1'
#226
b10010 /
b10 2
#230
b11101110 q
b1 o
b1111101 Q
b1 O
b11101110 b
b1111101 B
b11 A
b1110111001111101 8
b10111000 $
b101 -
b101 >
b101 E
b101 W
b101 e
b101 w
b1110111001111101 "
b11 .
b11100000111000000000010011000001 %
b11100000111000000000010011000001 <
b11100000111000000000010011000001 D
b11100000111000000000010011000001 U
b11100000111000000000010011000001 d
b11100000111000000000010011000001 u
0(
0)
0+
0,
b1 0
0'
#235
b10 4
b1 p
b11100000111000000000010011000001 |
b11101110 x
b101 ""
b1 P
b11100000111000000000010011000001 \
b1111101 X
b101 `
1'
#236
b10011 /
b10 2
#240
b1011010 q
b1011010 Q
b1011010 b
b1011010 B
b11 A
0V
b1 O
0v
b1 o
b101101001011010 8
0=
b1011010 $
b1100 -
b1100 >
b1100 E
b1100 W
b1100 e
b1100 w
b1101111111000100 "
b11 .
1&
b11101001101101001001101011010011 %
b11101001101101001001101011010011 <
b11101001101101001001101011010011 D
b11101001101101001001101011010011 U
b11101001101101001001101011010011 d
b11101001101101001001101011010011 u
0(
0)
0+
0,
b10 0
0'
#245
0N
0n
b11101001101101001001101011010011 \
b1011010 X
b1100 `
0_
b1 P
b11101001101101001001101011010011 |
b1011010 x
b1100 ""
0!"
b1 p
b100 7
1'
#246
b10100 /
b10 2
#250
b11101011 q
b1101 Q
b11101011 b
b1101 B
b11 A
1V
b1 O
1v
b1 o
b1110101100001101 8
1=
b11000001 $
b11 -
b11 >
b11 E
b11 W
b11 e
b11 w
b1110101100001101 "
b11 .
0&
b11111000110001110001010011110001 %
b11111000110001110001010011110001 <
b11111000110001110001010011110001 D
b11111000110001110001010011110001 U
b11111000110001110001010011110001 d
b11111000110001110001010011110001 u
0(
0)
0+
0,
b1 0
0'
#255
1n
1N
b10 4
b1 p
b11111000110001110001010011110001 |
b11101011 x
b11 ""
1!"
b1 P
b11111000110001110001010011110001 \
b1101 X
b11 `
1_
1'
#256
b10101 /
b10 2
#260
b11110110 q
b1 o
b1110 Q
b1 O
b11110110 b
b1110 B
b11 A
b1111011000001110 8
b10 $
b100 -
b100 >
b100 E
b100 W
b100 e
b100 w
b1111011000001110 "
b11 .
b10110010110100010100101001100101 %
b10110010110100010100101001100101 <
b10110010110100010100101001100101 D
b10110010110100010100101001100101 U
b10110010110100010100101001100101 d
b10110010110100010100101001100101 u
0(
0)
0+
0,
b10 0
0'
#263
b1000110110101011 ]
#265
b1000110110101011 #
b11 .
b1000110110101011 !
b1000110110101011 ?
b11 A
b1000110110101011 L
b10110010110100010100101001100101 \
b1110 X
b100 `
b1000110110101011 H
b1 P
b10110010110100010100101001100101 |
b11110110 x
b100 ""
b1 p
b10 4
1'
#266
b10110 /
b10 2
#270
b10011111 q
b1 o
b11111111 Q
b1 O
b10011111 b
b11111111 B
b11 A
b1001111111111111 8
b10000001 $
b1111 -
b1111 >
b1111 E
b1111 W
b1111 e
b1111 w
b1001111111111111 "
b11 .
b10111010011000000011100001110100 %
b10111010011000000011100001110100 <
b10111010011000000011100001110100 D
b10111010011000000011100001110100 U
b10111010011000000011100001110100 d
b10111010011000000011100001110100 u
0(
0)
0+
0,
b1 0
0'
#273
b11010100000000011011000 ]
#275
b11010100000000011011000 #
b11 .
b11010100000000011011000 !
b11010100000000011011000 ?
b11 A
b11010100000000011011000 L
b10 4
b1 p
b10111010011000000011100001110100 |
b10011111 x
b1111 ""
b11010100000000011011000 H
b1 P
b10111010011000000011100001110100 \
b11111111 X
b1111 `
1'
#276
b10111 /
b10 2
#280
b11100010 q
b1 o
b1001 Q
b1 O
b11100010 b
b1001 B
b11 A
b1110001000001001 8
b10000011 $
b1011 -
b1011 >
b1011 E
b1011 W
b1011 e
b1011 w
b1110001000001001 "
b11 .
b11011000011110000110100110110 %
b11011000011110000110100110110 <
b11011000011110000110100110110 D
b11011000011110000110100110110 U
b11011000011110000110100110110 d
b11011000011110000110100110110 u
0(
0)
0+
0,
b10 0
0'
#283
b11000000000100010100000000 }
b0 ]
#285
b1100000000010001010000000000000000000000000000000000000000 #
b11 .
b1100000000010001010000000000000000000000000000000000000000 !
b1100000000010001010000000000000000000000000000000000000000 ?
b11 A
b0 L
b11000000000100010100000000 l
b11011000011110000110100110110 \
b1001 X
b1011 `
b0 H
b1 P
b11011000011110000110100110110 |
b11100010 x
b1011 ""
b11000000000100010100000000 h
b1 p
b10 4
1'
#286
b11000 /
b10 2
#290
b1111101 q
b1111101 Q
b1111101 b
b1111101 B
b11 A
0V
b1 O
0v
b1 o
b111110101111101 8
0=
b1111101 $
b0 -
b0 >
b0 E
b0 W
b0 e
b0 w
b1000011110110101 "
b11 .
1&
b10101000000000000010100101010 %
b10101000000000000010100101010 <
b10101000000000000010100101010 D
b10101000000000000010100101010 U
b10101000000000000010100101010 d
b10101000000000000010100101010 u
0(
0)
0+
0,
b1 0
0'
#293
b0 }
#295
b0 #
0n
0N
b11 .
b0 !
b0 ?
b11 A
b0 l
b100 7
b0 h
b1 p
b10101000000000000010100101010 |
b1111101 x
b0 ""
0!"
b1 P
b10101000000000000010100101010 \
b1111101 X
b0 `
0_
1'
#296
b11001 /
b10 2
#300
b11101010 q
b1 o
b11101010 Q
b1 O
b11101010 b
b11101010 B
b11 A
b1110101011101010 8
b11101010 $
b1011 -
b1011 >
b1011 E
b1011 W
b1011 e
b1011 w
b1011100101 "
b11 .
1&
b1000110100010110110000110001101 %
b1000110100010110110000110001101 <
b1000110100010110110000110001101 D
b1000110100010110110000110001101 U
b1000110100010110110000110001101 d
b1000110100010110110000110001101 u
0(
0)
0+
0,
b10 0
0'
#305
b1000110100010110110000110001101 \
b11101010 X
b1011 `
b1 P
b1000110100010110110000110001101 |
b11101010 x
b1011 ""
b1 p
b100 7
1'
#306
b11010 /
b10 2
#310
b10110000 q
b11011100 Q
b10110000 b
b11011100 B
b11 A
1V
b1 O
1v
b1 o
b1011000011011100 8
1=
b1000010 $
b1110 -
b1110 >
b1110 E
b1110 W
b1110 e
b1110 w
b1011000011011100 "
b11 .
0&
b11110011101001100101100111100 %
b11110011101001100101100111100 <
b11110011101001100101100111100 D
b11110011101001100101100111100 U
b11110011101001100101100111100 d
b11110011101001100101100111100 u
0(
0)
0+
0,
b1 0
0'
#315
1n
1N
b10 4
b1 p
b11110011101001100101100111100 |
b10110000 x
b1110 ""
1!"
b1 P
b11110011101001100101100111100 \
b11011100 X
b1110 `
1_
1'
#316
b11011 /
b10 2
#320
b1101110 q
b1 o
b111001 Q
b1 O
b1101110 b
b111001 B
b11 A
b110111000111001 8
b101100 $
b1000 -
b1000 >
b1000 E
b1000 W
b1000 e
b1000 w
b110111000111001 "
b11 .
b1101000010001011111010111010000 %
b1101000010001011111010111010000 <
b1101000010001011111010111010000 D
b1101000010001011111010111010000 U
b1101000010001011111010111010000 d
b1101000010001011111010111010000 u
0(
0)
0+
0,
b10 0
0'
#325
b1101000010001011111010111010000 \
b111001 X
b1000 `
b1 P
b1101000010001011111010111010000 |
b1101110 x
b1000 ""
b1 p
b10 4
1'
#326
b11100 /
b10 2
#330
b100001 q
b100001 Q
b100001 b
b100001 B
b11 A
0V
b1 O
0v
b1 o
b10000100100001 8
0=
b100001 $
b1101 -
b1101 >
b1101 E
b1101 W
b1101 e
b1101 w
b10100101111100 "
b11 .
1&
b101111111011110011110101011111 %
b101111111011110011110101011111 <
b101111111011110011110101011111 D
b101111111011110011110101011111 U
b101111111011110011110101011111 d
b101111111011110011110101011111 u
0(
0)
0+
0,
b1 0
0'
#335
0n
0N
b100 7
b1 p
b101111111011110011110101011111 |
b100001 x
b1101 ""
0!"
b1 P
b101111111011110011110101011111 \
b100001 X
b1101 `
0_
1'
#336
b11101 /
b10 2
#340
b10110101 q
b10110 Q
b10110101 b
b10110 B
b11 A
1V
b1 O
1v
b1 o
b1011010100010110 8
1=
b11111101 $
b1011 -
b1011 >
b1011 E
b1011 W
b1011 e
b1011 w
b1011010100010110 "
b11 .
0&
b10001001001011111100000000010010 %
b10001001001011111100000000010010 <
b10001001001011111100000000010010 D
b10001001001011111100000000010010 U
b10001001001011111100000000010010 d
b10001001001011111100000000010010 u
0(
0)
0+
0,
b10 0
0'
#345
1N
1n
b10001001001011111100000000010010 \
b10110 X
b1011 `
1_
b1 P
b10001001001011111100000000010010 |
b10110101 x
b1011 ""
1!"
b1 p
b10 4
1'
#346
b11110 /
b10 2
#350
b1001010 q
b1 o
b1010 Q
b1 O
b1001010 b
b1010 B
b11 A
b100101000001010 8
b110 $
b10 -
b10 >
b10 E
b10 W
b10 e
b10 w
b100101000001010 "
b11 .
b11000000011000100000001010000000 %
b11000000011000100000001010000000 <
b11000000011000100000001010000000 D
b11000000011000100000001010000000 U
b11000000011000100000001010000000 d
b11000000011000100000001010000000 u
0(
0)
0+
0,
b1 0
0'
#355
b10 4
b1 p
b11000000011000100000001010000000 |
b1001010 x
b10 ""
b1 P
b11000000011000100000001010000000 \
b1010 X
b10 `
1'
#356
b11111 /
b10 2
