verilog/rtl/rams/ram_512x32_1rw_2021-11-24_03-18-56/simulation.vcd
$date
	Wed Nov 24 03:19:06 2021
$end
$version
	Icarus Verilog
$end
$timescale
	1s
$end
$scope module ram_generic_1rw_tb $end
$var wire 32 ! RData_pck_sram [31:0] $end
$var reg 9 " RAddr_pck [8:0] $end
$var reg 32 # RData_pck_golden [31:0] $end
$var reg 9 $ WAddr_pck [8:0] $end
$var reg 32 % WData_pck [31:0] $end
$var reg 1 & WEnb $end
$var reg 1 ' clk $end
$var reg 1 ( raw_addr $end
$var reg 1 ) rdw_addr $end
$var reg 1 * rst $end
$var reg 1 + waw_addr $end
$var reg 1 , wdw_addr $end
$var reg 4 - wmask_pck [3:0] $end
$var integer 32 . _i_ [31:0] $end
$var integer 32 / cycc [31:0] $end
$var integer 32 0 i [31:0] $end
$var integer 32 1 j [31:0] $end
$var integer 32 2 pass [31:0] $end
$var integer 32 3 q [31:0] $end
$var integer 32 4 r [31:0] $end
$var integer 32 5 rep_fd [31:0] $end
$scope module ram_1rw $end
$var wire 9 6 addr [8:0] $end
$var wire 9 7 addr1 [8:0] $end
$var wire 1 ' clk $end
$var wire 1 ' clk1 $end
$var wire 1 8 csb $end
$var wire 1 9 csb1 $end
$var wire 32 : din [31:0] $end
$var wire 1 ; web $end
$var wire 4 < wmask [3:0] $end
$var wire 2 = Addr_sel_1 [1:0] $end
$var wire 2 > Addr_sel [1:0] $end
$var reg 32 ? RData_out [31:0] $end
$var reg 32 @ RData_out_1 [31:0] $end
$var reg 2 A Raddr_sel [1:0] $end
$var reg 2 B Raddr_sel_1 [1:0] $end
$var reg 32 C dout [31:0] $end
$var reg 32 D dout1 [31:0] $end
$var reg 1 E web_reg $end
$var integer 32 F i [31:0] $end
$var integer 32 G j [31:0] $end
$scope begin genblk1[0] $end
$scope begin genblk4 $end
$scope module ram_i $end
$var wire 8 H addr0 [7:0] $end
$var wire 8 I addr1 [7:0] $end
$var wire 1 ' clk0 $end
$var wire 1 ' clk1 $end
$var wire 1 J csb0 $end
$var wire 1 K csb1 $end
$var wire 32 L din0 [31:0] $end
$var wire 1 M web0 $end
$var wire 4 N wmask0 [3:0] $end
$var reg 8 O addr0_reg [7:0] $end
$var reg 8 P addr1_reg [7:0] $end
$var reg 1 Q csb0_reg $end
$var reg 1 R csb1_reg $end
$var reg 32 S din0_reg [31:0] $end
$var reg 32 T dout0 [31:0] $end
$var reg 32 U dout1 [31:0] $end
$var reg 1 V web0_reg $end
$var reg 4 W wmask0_reg [3:0] $end
$var integer 32 X i [31:0] $end
$scope begin MEM_READ0 $end
$upscope $end
$scope begin MEM_READ1 $end
$upscope $end
$scope begin MEM_WRITE0 $end
$upscope $end
$upscope $end
$upscope $end
$upscope $end
$scope begin genblk1[1] $end
$scope begin genblk4 $end
$scope module ram_i $end
$var wire 8 Y addr0 [7:0] $end
$var wire 8 Z addr1 [7:0] $end
$var wire 1 ' clk0 $end
$var wire 1 ' clk1 $end
$var wire 1 [ csb0 $end
$var wire 1 \ csb1 $end
$var wire 32 ] din0 [31:0] $end
$var wire 1 ^ web0 $end
$var wire 4 _ wmask0 [3:0] $end
$var reg 8 ` addr0_reg [7:0] $end
$var reg 8 a addr1_reg [7:0] $end
$var reg 1 b csb0_reg $end
$var reg 1 c csb1_reg $end
$var reg 32 d din0_reg [31:0] $end
$var reg 32 e dout0 [31:0] $end
$var reg 32 f dout1 [31:0] $end
$var reg 1 g web0_reg $end
$var reg 4 h wmask0_reg [3:0] $end
$var integer 32 i i [31:0] $end
$scope begin MEM_READ0 $end
$upscope $end
$scope begin MEM_READ1 $end
$upscope $end
$scope begin MEM_WRITE0 $end
$upscope $end
$upscope $end
$upscope $end
$upscope $end
$upscope $end
$scope task genInitFiles $end
$var reg 32 j DEPTH [31:0] $end
$var reg 160 k FILEN [1:160] $end
$var reg 256 l INITVAL [255:0] $end
$var reg 1 m RAND $end
$var reg 32 n WIDTH [31:0] $end
$var reg 256 o ramdata [255:0] $end
$var integer 32 p addr [31:0] $end
$var integer 32 q hex_fd [31:0] $end
$var integer 32 r mif_fd [31:0] $end
$upscope $end
$upscope $end
$enddefinitions $end
#0
$dumpvars
b10000000000000000000000000000100 r
b10000000000000000000000000000011 q
b1000000000 p
b10100010001010101100011001000100 o
b100000 n
1m
b0 l
b110100101101110011010010111010001011111011100100110000101101101 k
b1000000000 j
b100000000 i
bx h
xg
bx f
bx e
bx d
1c
xb
b0 a
bx `
bx _
x^
bx ]
1\
x[
b0 Z
bx Y
b100000000 X
bx W
xV
bx U
bx T
bx S
1R
xQ
b0 P
bx O
bx N
xM
bx L
1K
xJ
b0 I
bx H
b10 G
b10 F
xE
bx D
bx C
b0 B
bx A
bx @
bx ?
bx >
b0 =
bx <
x;
bx :
19
08
b0 7
bx 6
b10000000000000000000000000000011 5
bx 4
b1000000000 3
bx 2
bx 1
bx 0
b1 /
bx .
bx -
x,
x+
1*
x)
x(
1'
x&
bx %
bx $
bx #
bx "
bx !
$end
#5
1[
0J
b0 >
1^
b0 Y
1M
b101110 H
b10 F
b101110 6
1;
b101100010 $
b111 -
b111 <
b111 N
b111 _
b101110 "
b10 .
0&
b11000110100100000001001010001101 %
b11000110100100000001001010001101 :
b11000110100100000001001010001101 L
b11000110100100000001001010001101 ]
0(
0)
b0 1
0+
0,
b1 0
0'
#10
1E
b0 A
b10 G
b11000110100100000001001010001101 d
b0 `
b111 h
1g
1b
b11000110100100000001001010001101 S
b101110 O
b111 W
1V
0Q
1'
#15
b110111 H
b10 F
b110111 6
b110101010 $
b1101 -
b1101 <
b1101 N
b1101 _
b110111 "
b10 .
0&
b11111000011000000010111011110000 %
b11111000011000000010111011110000 :
b11111000011000000010111011110000 L
b11111000011000000010111011110000 ]
0(
0)
0+
0,
b1 0
0'
#18
b0 T
#20
b0 #
b10 .
b0 !
b0 C
b11111000011000000010111011110000 S
b110111 O
b1101 W
b11111000011000000010111011110000 d
b1101 h
b0 ?
b10 G
1'
#25
b10111011 H
b10 F
b10111011 6
b111001101 $
b110 -
b110 <
b110 N
b110 _
b10111011 "
b10 .
b11101111111101101001001011011111 %
b11101111111101101001001011011111 :
b11101111111101101001001011011111 L
b11101111111101101001001011011111 ]
0(
0)
0+
0,
b1 0
0'
#30
b10 G
b11101111111101101001001011011111 d
b110 h
b11101111111101101001001011011111 S
b10111011 O
b110 W
1'
#35
b10010111 H
b10 F
b10010111 6
b1011000 $
b1100 -
b1100 <
b1100 N
b1100 _
b10010111 "
b10 .
0&
b10000011010111011010001000000110 %
b10000011010111011010001000000110 :
b10000011010111011010001000000110 L
b10000011010111011010001000000110 ]
0(
0)
0+
0,
b1 0
0'
#40
b10000011010111011010001000000110 S
b10010111 O
b1100 W
b10000011010111011010001000000110 d
b1100 h
b10 G
1'
#45
0[
b1011101 Y
1J
b0 H
b10 F
b1 >
b101011101 6
b11000100 $
b1110 -
b1110 <
b1110 N
b1110 _
b101011101 "
b10 .
b100110110001110001001101001101 %
b100110110001110001001101001101 :
b100110110001110001001101001101 L
b100110110001110001001101001101 ]
0(
0)
0+
0,
b1 0
0'
#50
b1 A
b10 G
b100110110001110001001101001101 d
b1011101 `
b1110 h
0b
b100110110001110001001101001101 S
b0 O
b1110 W
1Q
1'
#52
0*
#55
0^
b1111111 Y
b10 F
b101111111 6
0;
b101111111 $
b1010 -
b1010 <
b1010 N
b1010 _
b10111001 "
b10 .
1&
b11110000010111010110010011100000 %
b11110000010111010110010011100000 :
b11110000010111010110010011100000 L
b11110000010111010110010011100000 ]
0(
0)
0+
0,
b1 0
0'
#58
b0 e
#60
0E
b11110000010111010110010011100000 S
b1010 W
b11110000010111010110010011100000 d
b1111111 `
b1010 h
0g
b10 G
b100 4
1'
#61
b10 /
b1 2
#65
1[
1^
b0 Y
0J
0M
b10000001 H
b10 F
b0 >
b10000001 6
b10000001 $
b1 -
b1 <
b1 N
b1 _
b10001111 "
b10 .
1&
b1111111010100110111110111111110 %
b1111111010100110111110111111110 :
b1111111010100110111110111111110 L
b1111111010100110111110111111110 ]
0(
0)
0+
0,
b1 0
0'
#70
b0 A
b100 4
b10 G
b1111111010100110111110111111110 d
b0 `
b1 h
1g
1b
b1111111010100110111110111111110 S
b10000001 O
b1 W
0V
0Q
1'
#71
b11 /
#75
0[
0^
b1111 Y
1J
1M
b0 H
b10 F
b1 >
b100001111 6
b100001111 $
b1101001 "
b10 .
1&
b101011000011011010010101010110 %
b101011000011011010010101010110 :
b101011000011011010010101010110 L
b101011000011011010010101010110 ]
0(
0)
0+
0,
b1 0
0'
#80
b1 A
b101011000011011010010101010110 S
b0 O
1V
1Q
b101011000011011010010101010110 d
b1111 `
0g
0b
b10 G
b100 4
1'
#81
b100 /
#85
1[
0J
b11010011 H
b0 >
1^
b0 Y
b10 F
b11010011 6
1;
b1011100 $
b10 -
b10 <
b10 N
b10 _
b11010011 "
b10 .
0&
b10011101011100110111101000111010 %
b10011101011100110111101000111010 :
b10011101011100110111101000111010 L
b10011101011100110111101000111010 ]
0(
0)
0+
0,
b1 0
0'
#90
1E
b0 A
b10 G
b10011101011100110111101000111010 d
b0 `
b10 h
1g
1b
b10011101011100110111101000111010 S
b11010011 O
b10 W
0Q
1'
#91
b101 /
#95
0[
0^
b1111000 Y
1J
b1 >
1M
b0 H
b10 F
b101111000 6
0;
b101111000 $
b1 -
b1 <
b1 N
b1 _
b100100101 "
b10 .
1&
b10000100100101101101011000001001 %
b10000100100101101101011000001001 :
b10000100100101101101011000001001 L
b10000100100101101101011000001001 ]
0(
0)
0+
0,
b1 0
0'
#100
0E
b1 A
b10000100100101101101011000001001 S
b0 O
b1 W
1Q
b10000100100101101101011000001001 d
b1111000 `
b1 h
0g
0b
b10 G
b100 4
1'
#101
b110 /
#105
1[
0J
b11010 H
b0 >
1^
b0 Y
b10 F
b11010 6
1;
b100101100 $
b1110 -
b1110 <
b1110 N
b1110 _
b11010 "
b10 .
0&
b10111010101000100000000 %
b10111010101000100000000 :
b10111010101000100000000 L
b10111010101000100000000 ]
0(
0)
0+
0,
b1 0
0'
#110
1E
b0 A
b10 G
b10111010101000100000000 d
b0 `
b1110 h
1g
1b
b10111010101000100000000 S
b11010 O
b1110 W
0Q
1'
#111
b111 /
#115
0[
b10100000 Y
1J
b0 H
b10 F
b1 >
b110100000 6
b111101000 $
b1011 -
b1011 <
b1011 N
b1011 _
b110100000 "
b10 .
b1110110011010010010100011101 %
b1110110011010010010100011101 :
b1110110011010010010100011101 L
b1110110011010010010100011101 ]
0(
0)
0+
0,
b1 0
0'
#120
b1 A
b1110110011010010010100011101 S
b0 O
b1011 W
1Q
b1110110011010010010100011101 d
b10100000 `
b1011 h
0b
b10 G
1'
#121
b1000 /
#125
1[
0J
0M
b0 >
1^
b0 Y
b10 F
b0 6
0;
b0 $
b1110 -
b1110 <
b1110 N
b1110 _
b11011000 "
b10 .
1&
b1100000010111011011101111000000 %
b1100000010111011011101111000000 :
b1100000010111011011101111000000 L
b1100000010111011011101111000000 ]
0(
0)
0+
0,
b1 0
0'
#130
0E
b0 A
b100 4
b10 G
b1100000010111011011101111000000 d
b0 `
b1110 h
1b
b1100000010111011011101111000000 S
b1110 W
0V
0Q
1'
#131
b1001 /
#135
0[
b1010001 Y
1J
b1 >
1M
b0 H
b10 F
b101010001 6
1;
b111010001 $
b1010 -
b1010 <
b1010 N
b1010 _
b101010001 "
b10 .
0&
b10100010101001001011111001000101 %
b10100010101001001011111001000101 :
b10100010101001001011111001000101 L
b10100010101001001011111001000101 ]
0(
0)
0+
0,
b1 0
0'
#140
1E
b1 A
b10100010101001001011111001000101 S
b1010 W
1V
1Q
b10100010101001001011111001000101 d
b1010001 `
b1010 h
0b
b10 G
1'
#141
b1010 /
#145
0^
b1111110 Y
b10 F
b101111110 6
0;
b101111110 $
b1100 -
b1100 <
b1100 N
b1100 _
b11111100 "
b10 .
1&
b100100001001101101011101001000 %
b100100001001101101011101001000 :
b100100001001101101011101001000 L
b100100001001101101011101001000 ]
0(
0)
0+
0,
b1 0
0'
#150
0E
b100 4
b10 G
b100100001001101101011101001000 d
b1111110 `
b1100 h
0g
b100100001001101101011101001000 S
b1100 W
1'
#151
b1011 /
#155
1[
0J
b10000011 H
b0 >
1^
b0 Y
b10 F
b10000011 6
1;
b100110001 $
b101 -
b101 <
b101 N
b101 _
b10000011 "
b10 .
0&
b10011111110000010100001000111111 %
b10011111110000010100001000111111 :
b10011111110000010100001000111111 L
b10011111110000010100001000111111 ]
0(
0)
0+
0,
b1 0
0'
#160
1E
b0 A
b10011111110000010100001000111111 S
b10000011 O
b101 W
0Q
b10011111110000010100001000111111 d
b0 `
b101 h
1g
1b
b10 G
1'
#161
b1100 /
#165
b11110001 H
b10 F
b11110001 6
b101100100 $
b11 -
b11 <
b11 N
b11 _
b11110001 "
b10 .
b1000111001011011111101110001110 %
b1000111001011011111101110001110 :
b1000111001011011111101110001110 L
b1000111001011011111101110001110 ]
0(
0)
0+
0,
b1 0
0'
#170
b10 G
b1000111001011011111101110001110 d
b11 h
b1000111001011011111101110001110 S
b11110001 O
b11 W
1'
#171
b1101 /
#175
0M
b11101000 H
b10 F
b11101000 6
0;
b11101000 $
b10 -
b10 <
b10 N
b10 _
b100001010 "
b10 .
1&
b101111101110000001101101011111 %
b101111101110000001101101011111 :
b101111101110000001101101011111 L
b101111101110000001101101011111 ]
0(
0)
0+
0,
b1 0
0'
#180
0E
b101111101110000001101101011111 S
b11101000 O
b10 W
0V
b101111101110000001101101011111 d
b10 h
b10 G
b100 4
1'
#181
b1110 /
#185
0[
0^
b1001001 Y
1J
1M
b0 H
b10 F
b1 >
b101001001 6
b101001001 $
b1001 -
b1001 <
b1001 N
b1001 _
b101101100 "
b10 .
1&
b10101100010100001001110001011000 %
b10101100010100001001110001011000 :
b10101100010100001001110001011000 L
b10101100010100001001110001011000 ]
0(
0)
0+
0,
b1 0
0'
#190
b1 A
b100 4
b10 G
b10101100010100001001110001011000 d
b1001001 `
b1001 h
0g
0b
b10101100010100001001110001011000 S
b0 O
b1001 W
1V
1Q
1'
#191
b1111 /
#195
b101111 Y
b10 F
b100101111 6
b100101111 $
b1100 -
b1100 <
b1100 N
b1100 _
b100111 "
b10 .
1&
b1101010010111011101101111010100 %
b1101010010111011101101111010100 :
b1101010010111011101101111010100 L
b1101010010111011101101111010100 ]
0(
0)
0+
0,
b1 0
0'
#200
b1101010010111011101101111010100 S
b1100 W
b1101010010111011101101111010100 d
b101111 `
b1100 h
b10 G
b100 4
1'
#201
b10000 /
#205
b10010010 Y
b10 F
b110010010 6
b110010010 $
b1 -
b1 <
b1 N
b1 _
b1000110 "
b10 .
1&
b10110111101110000010101001101111 %
b10110111101110000010101001101111 :
b10110111101110000010101001101111 L
b10110111101110000010101001101111 ]
0(
0)
0+
0,
b1 0
0'
#210
b100 4
b10 G
b10110111101110000010101001101111 d
b10010010 `
b1 h
b10110111101110000010101001101111 S
b1 W
1'
#211
b10001 /
#215
1[
0J
b1110010 H
b0 >
1^
b0 Y
b10 F
b1110010 6
1;
b11110111 $
b1000 -
b1000 <
b1000 N
b1000 _
b1110010 "
b10 .
0&
b1010001001101101010010110100010 %
b1010001001101101010010110100010 :
b1010001001101101010010110100010 L
b1010001001101101010010110100010 ]
0(
0)
0+
0,
b1 0
0'
#220
1E
b0 A
b1010001001101101010010110100010 S
b1110010 O
b1000 W
0Q
b1010001001101101010010110100010 d
b0 `
b1000 h
1g
1b
b10 G
1'
#221
b10010 /
#225
b1101000 H
b10 F
b1101000 6
b110010010 $
b1110 -
b1110 <
b1110 N
b1110 _
b1101000 "
b10 .
b10011000101101001110111000110001 %
b10011000101101001110111000110001 :
b10011000101101001110111000110001 L
b10011000101101001110111000110001 ]
0(
0)
0+
0,
b1 0
0'
#230
b10 G
b10011000101101001110111000110001 d
b1110 h
b10011000101101001110111000110001 S
b1101000 O
b1110 W
1'
#231
b10011 /
#235
0[
0^
b1010101 Y
1J
b1 >
1M
b0 H
b10 F
b101010101 6
0;
b101010101 $
b11 -
b11 <
b11 N
b11 _
b1011110 "
b10 .
1&
b11100110111000011000011011001101 %
b11100110111000011000011011001101 :
b11100110111000011000011011001101 L
b11100110111000011000011011001101 ]
0(
0)
0+
0,
b1 0
0'
#240
0E
b1 A
b11100110111000011000011011001101 S
b0 O
b11 W
1Q
b11100110111000011000011011001101 d
b1010101 `
b11 h
0g
0b
b10 G
b100 4
1'
#241
b10100 /
#245
1^
b111111 Y
b10 F
b100111111 6
1;
b1000 $
b1100 -
b1100 <
b1100 N
b1100 _
b100111111 "
b10 .
0&
b11011000000001111111001010110000 %
b11011000000001111111001010110000 :
b11011000000001111111001010110000 L
b11011000000001111111001010110000 ]
0(
0)
0+
0,
b1 0
0'
#250
1E
b10 G
b11011000000001111111001010110000 d
b111111 `
b1100 h
1g
b11011000000001111111001010110000 S
b1100 W
1'
#251
b10101 /
#255
1[
b0 Y
0J
b1011110 H
b10 F
b0 >
b1011110 6
b100110010 $
b0 -
b0 <
b0 N
b0 _
b1011110 "
b10 .
b11011100000101101101100010111000 %
b11011100000101101101100010111000 :
b11011100000101101101100010111000 L
b11011100000101101101100010111000 ]
0(
0)
0+
0,
b1 0
0'
#260
b0 A
b11011100000101101101100010111000 S
b1011110 O
b0 W
0Q
b11011100000101101101100010111000 d
b0 `
b0 h
1b
b10 G
1'
#261
b10110 /
#265
0[
0^
b1010 Y
1J
b1 >
1M
b0 H
b10 F
b100001010 6
0;
b100001010 $
b1100 -
b1100 <
b1100 N
b1100 _
b11001001 "
b10 .
1&
b11111000110100111101100011110001 %
b11111000110100111101100011110001 :
b11111000110100111101100011110001 L
b11111000110100111101100011110001 ]
0(
0)
0+
0,
b1 0
0'
#270
0E
b1 A
b100 4
b10 G
b11111000110100111101100011110001 d
b1010 `
b1100 h
0g
0b
b11111000110100111101100011110001 S
b0 O
b1100 W
1Q
1'
#271
b10111 /
#275
1[
0J
b100011 H
b0 >
1^
b0 Y
b10 F
b100011 6
1;
b11100101 $
b1 -
b1 <
b1 N
b1 _
b100011 "
b10 .
0&
b10110100100011010001100101101 %
b10110100100011010001100101101 :
b10110100100011010001100101101 L
b10110100100011010001100101101 ]
0(
0)
0+
0,
b1 0
0'
#280
1E
b0 A
b10110100100011010001100101101 S
b100011 O
b1 W
0Q
b10110100100011010001100101101 d
b0 `
b1 h
1g
1b
b10 G
1'
#281
b11000 /
#285
b1110 H
b10 F
b1110 6
b1011110 $
b101 -
b101 <
b101 N
b101 _
b1110 "
b10 .
b110010001011001100000101100100 %
b110010001011001100000101100100 :
b110010001011001100000101100100 L
b110010001011001100000101100100 ]
0(
0)
0+
0,
b1 0
0'
#290
b10 G
b110010001011001100000101100100 d
b101 h
b110010001011001100000101100100 S
b1110 O
b101 W
1'
#291
b11001 /
#295
0M
b1001000 H
b10 F
b1001000 6
0;
b1001000 $
b1100 -
b1100 <
b1100 N
b1100 _
b10011011 "
b10 .
1&
b11100110111110111111010011001101 %
b11100110111110111111010011001101 :
b11100110111110111111010011001101 L
b11100110111110111111010011001101 ]
0(
0)
0+
0,
b1 0
0'
#300
0E
b11100110111110111111010011001101 S
b1001000 O
b1100 W
0V
b11100110111110111111010011001101 d
b1100 h
b10 G
b100 4
1'
#301
b11010 /
#305
b10101011 H
b10 F
b10101011 6
b10101011 $
b1111 -
b1111 <
b1111 N
b1111 _
b10111101 "
b10 .
1&
b11101100111111110010010011011001 %
b11101100111111110010010011011001 :
b11101100111111110010010011011001 L
b11101100111111110010010011011001 ]
0(
0)
0+
0,
b1 0
0'
#310
b100 4
b10 G
b11101100111111110010010011011001 d
b1111 h
b11101100111111110010010011011001 S
b10101011 O
b1111 W
1'
#311
b11011 /
#315
0[
b11101 Y
1J
b1 >
1M
b0 H
b10 F
b100011101 6
1;
b111100000 $
b1010 -
b1010 <
b1010 N
b1010 _
b100011101 "
b10 .
0&
b11001001101101100100110010010011 %
b11001001101101100100110010010011 :
b11001001101101100100110010010011 L
b11001001101101100100110010010011 ]
0(
0)
0+
0,
b1 0
0'
#320
1E
b1 A
b11001001101101100100110010010011 S
b0 O
b1010 W
1V
1Q
b11001001101101100100110010010011 d
b11101 `
b1010 h
0b
b10 G
1'
#321
b11100 /
#325
b1101100 Y
b10 F
b101101100 6
b100000101 $
b1000 -
b1000 <
b1000 N
b1000 _
b101101100 "
b10 .
b10110101110001011100000001101011 %
b10110101110001011100000001101011 :
b10110101110001011100000001101011 L
b10110101110001011100000001101011 ]
0(
0)
0+
0,
b1 0
0'
#330
b10 G
b10110101110001011100000001101011 d
b1101100 `
b1000 h
b10110101110001011100000001101011 S
b1000 W
1'
#331
b11101 /
#335
b1010111 Y
b10 F
b101010111 6
b111110111 $
b101 -
b101 <
b101 N
b101 _
b101010111 "
b10 .
b111011000100011111001101110110 %
b111011000100011111001101110110 :
b111011000100011111001101110110 L
b111011000100011111001101110110 ]
0(
0)
0+
0,
b1 0
0'
#340
b111011000100011111001101110110 S
b101 W
b111011000100011111001101110110 d
b1010111 `
b101 h
b10 G
1'
#341
b11110 /
#345
1[
b0 Y
0J
b10000111 H
b10 F
b0 >
b10000111 6
b10110100 $
b1000 -
b1000 <
b1000 N
b1000 _
b10000111 "
b10 .
b100011010001100110001101000110 %
b100011010001100110001101000110 :
b100011010001100110001101000110 L
b100011010001100110001101000110 ]
0(
0)
0+
0,
b1 0
0'
#350
b0 A
b10 G
b100011010001100110001101000110 d
b0 `
b1000 h
1b
b100011010001100110001101000110 S
b10000111 O
b1000 W
0Q
1'
#351
b11111 /
#355
0M
b10011110 H
b10 F
b10011110 6
0;
b10011110 $
b1 -
b1 <
b1 N
b1 _
b1010100 "
b10 .
1&
b101010010101100101111101010100 %
b101010010101100101111101010100 :
b101010010101100101111101010100 L
b101010010101100101111101010100 ]
0(
0)
0+
0,
b1 0
0'
#360
0E
b101010010101100101111101010100 S
b10011110 O
b1 W
0V
b101010010101100101111101010100 d
b1 h
b10 G
b100 4
1'
#361
b100000 /
#365
1M
b101101 H
b10 F
b101101 6
1;
b100000110 $
b10 -
b10 <
b10 N
b10 _
b101101 "
b10 .
0&
b11000011010011011101110010000110 %
b11000011010011011101110010000110 :
b11000011010011011101110010000110 L
b11000011010011011101110010000110 ]
0(
0)
0+
0,
b1 0
0'
#370
1E
b10 G
b11000011010011011101110010000110 d
b10 h
b11000011010011011101110010000110 S
b101101 O
b10 W
1V
1'
#371
b100001 /
#375
0M
b10111000 H
b10 F
b10111000 6
0;
b10111000 $
b1111 -
b1111 <
b1111 N
b1111 _
b10100000 "
b10 .
1&
b11111101010011000111100111111 %
b11111101010011000111100111111 :
b11111101010011000111100111111 L
b11111101010011000111100111111 ]
0(
0)
0+
0,
b1 0
0'
#380
0E
b11111101010011000111100111111 S
b10111000 O
b1111 W
0V
b11111101010011000111100111111 d
b1111 h
b10 G
b100 4
1'
#381
b100010 /
#385
0[
0^
b10101000 Y
1J
1M
b0 H
b10 F
b1 >
b110101000 6
b110101000 $
b1010 -
b1010 <
b1010 N
b1010 _
b100011110 "
b10 .
1&
b11011100001000101101110010111000 %
b11011100001000101101110010111000 :
b11011100001000101101110010111000 L
b11011100001000101101110010111000 ]
0(
0)
0+
0,
b1 0
0'
#390
b1 A
b100 4
b10 G
b11011100001000101101110010111000 d
b10101000 `
b1010 h
0g
0b
b11011100001000101101110010111000 S
b0 O
b1010 W
1V
1Q
1'
#391
b100011 /
#395
1^
b10101001 Y
b10 F
b110101001 6
1;
b111010110 $
b1001 -
b1001 <
b1001 N
b1001 _
b110101001 "
b10 .
0&
b11100111101100110111010011001111 %
b11100111101100110111010011001111 :
b11100111101100110111010011001111 L
b11100111101100110111010011001111 ]
0(
0)
0+
0,
b1 0
0'
#400
1E
b11100111101100110111010011001111 S
b1001 W
b11100111101100110111010011001111 d
b10101001 `
b1001 h
1g
b10 G
1'
#401
b100100 /
#405
b11110101 Y
b10 F
b111110101 6
b1000000 $
b101 -
b101 <
b101 N
b101 _
b111110101 "
b10 .
b10101101001001111100010001011010 %
b10101101001001111100010001011010 :
b10101101001001111100010001011010 L
b10101101001001111100010001011010 ]
0(
0)
0+
0,
b1 0
0'
#410
b10 G
b10101101001001111100010001011010 d
b11110101 `
b101 h
b10101101001001111100010001011010 S
b101 W
1'
#411
b100101 /
#415
1[
0J
0M
b100101 H
b0 >
1^
b0 Y
b10 F
b100101 6
0;
b100101 $
b1001 -
b1001 <
b1001 N
b1001 _
b1000100 "
b10 .
1&
b10111100100101000100011001111001 %
b10111100100101000100011001111001 :
b10111100100101000100011001111001 L
b10111100100101000100011001111001 ]
0(
0)
0+
0,
b1 0
0'
#420
0E
b0 A
b10111100100101000100011001111001 S
b100101 O
b1001 W
0V
0Q
b10111100100101000100011001111001 d
b0 `
b1001 h
1b
b10 G
b100 4
1'
#421
b100110 /
#425
b10101000 H
b10 F
b10101000 6
b10101000 $
b110 -
b110 <
b110 N
b110 _
b10000101 "
b10 .
1&
b1000010111000111001110110000101 %
b1000010111000111001110110000101 :
b1000010111000111001110110000101 L
b1000010111000111001110110000101 ]
0(
0)
0+
0,
b1 0
0'
#430
b100 4
b10 G
b1000010111000111001110110000101 d
b110 h
b1000010111000111001110110000101 S
b10101000 O
b110 W
1'
#431
b100111 /
#435
0[
b110100 Y
1J
b1 >
1M
b0 H
b10 F
b100110100 6
1;
b10001000 $
b100 -
b100 <
b100 N
b100 _
b100110100 "
b10 .
0&
b11110100001011110110100111101 %
b11110100001011110110100111101 :
b11110100001011110110100111101 L
b11110100001011110110100111101 ]
0(
0)
0+
0,
b1 0
0'
#440
1E
b1 A
b11110100001011110110100111101 S
b0 O
b100 W
1V
1Q
b11110100001011110110100111101 d
b110100 `
b100 h
0b
b10 G
1'
#441
b101000 /
#445
1[
b0 Y
0J
b10111101 H
b10 F
b0 >
b10111101 6
b100011011 $
b1000 -
b1000 <
b1000 N
b1000 _
b10111101 "
b10 .
b11011010011010011110001010110100 %
b11011010011010011110001010110100 :
b11011010011010011110001010110100 L
b11011010011010011110001010110100 ]
0(
0)
0+
0,
b1 0
0'
#450
b0 A
b10 G
b11011010011010011110001010110100 d
b0 `
b1000 h
1b
b11011010011010011110001010110100 S
b10111101 O
b1000 W
0Q
1'
#451
b101001 /
#455
0M
b101111 H
b10 F
b101111 6
0;
b101111 $
b10 -
b10 <
b10 N
b10 _
b111101100 "
b10 .
1&
b1111010000000101010100011110 %
b1111010000000101010100011110 :
b1111010000000101010100011110 L
b1111010000000101010100011110 ]
0(
0)
0+
0,
b1 0
0'
#460
0E
b1111010000000101010100011110 S
b101111 O
b10 W
0V
b1111010000000101010100011110 d
b10 h
b10 G
b100 4
1'
#461
b101010 /
#465
0[
b1100100 Y
1J
b1 >
1M
b0 H
b10 F
b101100100 6
1;
b111000000 $
b111 -
b111 <
b111 N
b111 _
b101100100 "
b10 .
0&
b10100101110110010111000001001011 %
b10100101110110010111000001001011 :
b10100101110110010111000001001011 L
b10100101110110010111000001001011 ]
0(
0)
0+
0,
b1 0
0'
#470
1E
b1 A
b10 G
b10100101110110010111000001001011 d
b1100100 `
b111 h
0b
b10100101110110010111000001001011 S
b0 O
b111 W
1V
1Q
1'
#471
b101011 /
#475
b10011 Y
b10 F
b100010011 6
b10000100 $
b10 -
b10 <
b10 N
b10 _
b100010011 "
b10 .
b11011001111110001110000010110011 %
b11011001111110001110000010110011 :
b11011001111110001110000010110011 L
b11011001111110001110000010110011 ]
0(
0)
0+
0,
b1 0
0'
#480
b11011001111110001110000010110011 S
b10 W
b11011001111110001110000010110011 d
b10011 `
b10 h
b10 G
1'
#481
b101100 /
#485
1[
b0 Y
0J
b1011101 H
b10 F
b0 >
b1011101 6
b101000 $
b1 -
b1 <
b1 N
b1 _
b1011101 "
b10 .
b1110111011010100110000111101110 %
b1110111011010100110000111101110 :
b1110111011010100110000111101110 L
b1110111011010100110000111101110 ]
0(
0)
0+
0,
b1 0
0'
#490
b0 A
b10 G
b1110111011010100110000111101110 d
b0 `
b1 h
1b
b1110111011010100110000111101110 S
b1011101 O
b1 W
0Q
1'
#491
b101101 /
#495
0M
b10111011 H
b10 F
b10111011 6
0;
b10111011 $
b1011 -
b1011 <
b1011 N
b1011 _
b11001010 "
b10 .
1&
b101110100101001011011101011101 %
b101110100101001011011101011101 :
b101110100101001011011101011101 L
b101110100101001011011101011101 ]
0(
0)
0+
0,
b1 0
0'
#500
0E
b101110100101001011011101011101 S
b10111011 O
b1011 W
0V
b101110100101001011011101011101 d
b1011 h
b10 G
b100 4
1'
#501
b101110 /
#505
1M
b11011011 H
b10 F
b11011011 6
1;
b1110110 $
b110 -
b110 <
b110 N
b110 _
b11011011 "
b10 .
0&
b11011010010000101110010010110100 %
b11011010010000101110010010110100 :
b11011010010000101110010010110100 L
b11011010010000101110010010110100 ]
0(
0)
0+
0,
b1 0
0'
#510
1E
b10 G
b11011010010000101110010010110100 d
b110 h
b11011010010000101110010010110100 S
b11011011 O
b110 W
1V
1'
#511
b101111 /
#515
0M
b100 H
b10 F
b100 6
0;
b100 $
b1011 -
b1011 <
b1011 N
b1011 _
b111001101 "
b10 .
1&
b11001001011001100010110010010010 %
b11001001011001100010110010010010 :
b11001001011001100010110010010010 L
b11001001011001100010110010010010 ]
0(
0)
0+
0,
b1 0
0'
#520
0E
b11001001011001100010110010010010 S
b100 O
b1011 W
0V
b11001001011001100010110010010010 d
b1011 h
b10 G
b100 4
1'
#521
b110000 /
